o rock_low.002_Group58368.002
v 0.545040 0.625284 -0.107577
v 0.707333 0.575554 -0.096801
v 0.645637 0.622313 -0.210205
v -0.306559 0.014068 -0.786659
v -0.360683 0.233828 -0.636873
v -0.237992 0.219312 -0.716794
v 0.781224 0.042195 0.571996
v 0.774991 -0.344117 0.402089
v 0.811862 0.014798 0.457235
v -0.527865 -0.173420 0.557191
v -0.577883 -0.277537 0.533205
v -0.442247 -0.263721 0.590190
v 0.390835 -0.322357 -0.741195
v 0.311296 -0.334856 -0.905509
v 0.397170 -0.224044 -0.873845
v -0.284823 -0.468760 0.506494
v -0.164802 -0.632752 0.396650
v -0.043585 -0.544076 0.525890
v -0.599955 -0.170927 0.489440
v -0.613430 -0.204613 0.391277
v -0.627448 -0.261664 0.486286
v -0.055948 -0.656765 -0.328968
v 0.197322 -0.636981 -0.267324
v -0.028245 -0.664900 -0.162462
v 0.523954 0.546878 -0.427211
v 0.342141 0.504146 -0.697053
v 0.404838 0.561445 -0.375578
v 0.950604 -0.105896 -0.457470
v 0.727799 -0.284149 -0.396532
v 0.719789 -0.158554 -0.597614
v 0.766249 -0.087244 -0.606653
v 0.540143 -0.150252 -0.774978
v 0.703523 0.442575 -0.520284
v -0.185846 -0.173074 -0.900786
v -0.129564 0.052673 -0.816596
v 0.081957 -0.190228 -1.027928
v -0.199425 0.258474 0.725026
v -0.301817 0.312819 0.640244
v -0.238639 0.205039 0.727764
v 0.031628 -0.121698 0.867218
v 0.307127 -0.323639 0.801023
v 0.254618 -0.060997 0.821301
v 0.896061 -0.075406 -0.522182
v 0.831670 0.396134 -0.453585
v 0.811299 0.429633 -0.273645
v 0.812510 0.406507 -0.156890
v 0.879850 0.255470 -0.199133
v -0.771553 -0.030924 0.362351
v -0.666343 -0.116255 0.348284
v -0.657064 0.001610 0.452560
v 0.019931 0.509193 -0.513357
v -0.130975 0.495306 -0.580013
v -0.051955 0.514514 -0.472350
v -0.210778 0.420512 0.580112
v -0.115398 0.330221 0.725590
v -0.038929 0.412027 0.542471
v -0.522285 0.593622 -0.098361
v -0.395970 0.637720 0.105941
v -0.307284 0.679265 0.050333
v -0.638608 -0.405047 0.379142
v -0.503034 -0.619589 0.146820
v -0.429554 -0.662187 0.288307
v -0.487249 -0.574576 0.398027
v -0.376473 -0.280021 0.632633
v -0.541139 -0.388400 0.507673
v 0.744782 -0.208495 0.518272
v 0.630987 -0.540363 0.479050
v 0.118092 -0.645678 -0.133107
v 0.362745 -0.596612 -0.125197
v 0.404340 -0.606094 -0.011152
v 0.594799 -0.564718 0.052770
v 0.752091 -0.537233 0.219534
v 0.366390 -0.617223 0.110527
v 0.799762 -0.508356 0.076040
v 0.795311 -0.505875 -0.065320
v 0.879021 -0.406070 -0.104942
v -0.299651 0.598488 -0.144884
v -0.395210 0.629540 -0.117901
v 0.271551 0.616598 0.076914
v 0.166789 0.583597 0.141255
v 0.361968 0.529405 0.195787
v -0.584982 0.375823 0.267435
v -0.584835 0.453385 0.193555
v -0.672594 0.387984 0.068487
v -0.399491 0.222486 0.661437
v -0.729516 -0.327383 0.123985
v -0.779883 -0.248442 -0.022527
v -0.634280 -0.449703 0.011875
v -0.761837 0.060222 -0.368365
v -0.782297 -0.158606 -0.387406
v -0.782291 -0.054047 -0.024047
v 0.155065 -0.035179 0.857208
v 0.082197 0.131342 0.879813
v -0.047506 0.075019 0.899880
v 0.206578 0.432984 0.374901
v 0.073089 0.333697 0.571505
v 0.338103 0.335922 0.494363
v -0.210416 -0.724547 -0.182806
v -0.099512 -0.531016 -0.831899
v -0.245554 -0.459435 -0.827959
v -0.025435 -0.400977 -0.921865
v 0.850647 0.140135 0.236129
v 0.756782 0.430312 0.184390
v 0.772933 0.317995 0.398389
v 0.592988 0.487610 0.178923
v -0.682514 -0.432521 -0.103483
v -0.327444 -0.712091 -0.226798
v -0.315589 -0.536993 -0.553844
v -0.207583 -0.598661 -0.421594
v 0.603481 0.059024 0.725021
v 0.555554 -0.518975 0.563052
v 0.717039 0.312747 0.434570
v -0.596756 -0.585655 -0.342008
v -0.449180 -0.711138 -0.202515
v -0.705366 -0.080240 -0.636101
v 0.195457 0.278954 0.788362
v 0.246159 0.213763 0.794315
v 0.259352 0.246136 0.667289
v 0.455133 0.254252 0.577561
v 0.284306 -0.499335 -0.742024
v 0.367715 -0.472772 -0.633995
v 0.260203 -0.495364 -0.670454
v -0.247968 -0.497694 -0.607515
v -0.323524 -0.484404 -0.739938
v -0.178280 -0.557817 -0.730455
v 0.181893 0.253461 0.622076
v 0.087972 0.290757 0.606899
v 0.094718 0.319898 0.797271
v -0.022425 0.154168 0.846251
v -0.091424 0.166256 0.800191
v 0.037621 -0.448020 -0.886796
v -0.057515 -0.556232 -0.771129
v 0.069847 -0.484708 -0.820688
v -0.000615 -0.551362 -0.624559
v -0.465801 0.438333 0.407348
v -0.482590 0.324791 0.372468
v -0.361647 0.462870 0.415843
v -0.229091 0.647114 0.266383
v 0.249346 -0.515320 -0.605133
v 0.393525 -0.460500 -0.548161
v 0.284865 -0.538420 -0.447248
v 0.817992 -0.398189 -0.164194
v 0.948228 -0.240633 -0.266540
v -0.778968 0.136640 0.008497
v -0.785816 -0.021482 0.175533
v -0.775906 0.111115 0.173782
v -0.765199 0.180284 0.121111
v -0.660226 0.217746 0.173423
v -0.695477 0.257748 0.071732
v 0.260301 -0.368045 0.766318
v 0.000770 -0.300903 0.695273
v 0.180974 -0.519214 0.607980
v 0.506743 0.066333 0.792270
v 0.391541 -0.464889 0.702257
v -0.748470 0.255250 -0.154970
v -0.654801 0.510802 -0.177975
v -0.575217 0.556832 -0.245772
v -0.686790 0.447519 -0.216719
v 0.763248 0.181559 0.561229
v 0.817553 0.143001 0.417015
v 0.368558 -0.588286 0.488182
v 0.488206 -0.554642 0.465883
v 0.521518 -0.562767 0.557577
v -0.595049 -0.292490 -0.782389
v -0.671412 -0.459201 -0.568177
v -0.728897 -0.252022 -0.555356
v 0.119676 -0.245532 0.809962
v -0.321125 0.070691 0.665305
v -0.731363 0.128680 0.360495
v -0.766691 0.067266 0.410937
v -0.341539 -0.116911 0.597535
v -0.414027 -0.169879 0.598760
v -0.294827 -0.197135 0.675349
v -0.085599 -0.385249 0.634145
v 0.880030 -0.238221 -0.008144
v 0.837262 -0.042028 0.255345
v 0.812944 -0.447692 0.175381
v -0.529187 0.269735 0.373671
v -0.513053 0.163304 0.423450
v -0.446146 0.337182 0.443122
v -0.562525 -0.034631 0.506645
v -0.459890 -0.070997 0.459889
v -0.667971 0.095090 0.326445
v -0.320076 -0.827921 0.201027
v -0.236066 -0.757323 -0.018378
v -0.086704 -0.727938 0.240378
v -0.341805 -0.646532 0.374109
v -0.539629 0.036795 -0.671334
v -0.590780 0.250542 -0.545208
v -0.431625 0.145433 -0.643892
v -0.273251 0.522751 -0.441077
v -0.458155 0.559390 -0.372040
v -0.405762 0.590460 -0.269578
v -0.504318 0.181616 0.499368
v -0.466011 0.068772 0.521121
v -0.406510 0.325426 -0.571622
v -0.668789 0.427416 -0.466045
v -0.688276 0.356894 -0.404869
v -0.725770 0.394276 -0.247089
v -0.164123 0.104795 0.705986
v -0.226140 0.102810 0.709809
v -0.239899 -0.091318 0.785096
v 0.542043 0.215014 -0.687191
v 0.269589 0.052048 -0.924642
v 0.181105 -0.207458 -1.057162
v -0.442924 0.318200 0.541422
v -0.345203 0.417773 0.583432
v -0.332672 0.562443 0.386129
v 0.971029 0.068951 -0.426116
v -0.732945 -0.440760 -0.457925
v -0.782062 -0.357075 -0.372403
v -0.574709 -0.568854 -0.193386
v -0.706219 -0.465708 -0.321446
v 0.469472 -0.584362 -0.381086
v 0.495257 -0.520422 -0.441564
v 0.594084 -0.563411 -0.133885
v 0.728628 0.503134 -0.420279
v 0.830296 0.450211 -0.411021
v 0.726724 0.572944 -0.245602
v 0.746550 0.495577 -0.155710
v -0.105109 -0.540630 -0.562030
v -0.173857 -0.677184 -0.341884
v 0.753353 0.022883 0.595094
v 0.741639 0.130996 0.610191
v -0.322811 -0.385498 -0.822357
v -0.545368 -0.348068 -0.815428
v -0.106854 -0.365350 -0.897476
v -0.505161 -0.394451 -0.774943
v -0.626371 -0.508095 -0.533225
v 0.593930 0.125272 0.720803
v 0.702954 0.179633 0.603960
v 0.450483 0.133841 0.773558
v 0.353752 0.087600 0.817184
v -0.183929 0.502643 0.444405
v -0.090347 0.514406 0.396471
v -0.255855 0.597810 0.376894
v -0.243966 0.515546 0.478332
v 0.073483 0.531795 -0.521375
v 0.022459 0.557268 -0.405344
v 0.264097 0.552324 -0.506282
v 0.225082 0.351129 -0.869647
v 0.275563 -0.653932 0.365952
v -0.783442 -0.040717 0.252327
v -0.712899 -0.222263 0.357602
v 0.280620 0.580423 -0.349474
v 0.088175 0.610872 -0.250821
v 0.256023 0.591310 -0.244118
v 0.037357 0.650151 -0.110430
v -0.072027 0.669947 0.124924
v 0.063532 0.661462 0.015516
v -0.146048 0.091717 0.813792
v -0.193901 -0.071543 0.791334
v -0.155257 0.009945 0.702998
v -0.805815 -0.081789 0.131562
v -0.784469 -0.222425 0.205491
v -0.110813 -0.079188 0.805100
v -0.053567 0.615469 -0.110338
v -0.195036 0.660820 0.029092
v 0.554155 -0.398963 -0.399298
v 0.655005 -0.450799 -0.291000
v 0.406936 -0.432901 -0.666050
v 0.325607 -0.396926 -0.790205
v -0.350688 -0.058666 0.545925
v -0.364433 0.002573 0.605508
v -0.001850 0.574272 0.229724
v -0.158320 0.665973 0.123609
v 0.116773 0.651559 0.086728
v 0.027128 0.633309 0.161184
v 0.111872 -0.625049 -0.568698
v 0.166906 -0.680780 -0.420647
v 0.059555 -0.646560 -0.439580
v -0.038103 -0.619565 -0.459295
v -0.402644 -0.022557 0.499947
v -0.547622 0.041171 0.395537
v -0.451398 0.076150 0.437717
v -0.714059 0.100664 -0.549079
v -0.742617 0.338552 -0.282769
v -0.705362 0.347348 -0.188728
v 0.411190 -0.620092 -0.265820
v -0.220200 -0.220637 0.706949
v -0.160414 -0.155574 0.787417
v -0.519621 -0.485438 0.372731
v -0.680060 -0.297784 0.374238
v -0.663455 -0.062107 -0.683671
v -0.634096 0.087125 -0.621230
v 0.713271 -0.468849 0.382879
v 0.785202 -0.421556 0.305238
v -0.557058 -0.141299 0.502902
v -0.494205 -0.132710 0.500494
v -0.471702 -0.699172 -0.111871
v -0.391321 -0.150520 0.543339
v 0.974096 0.047348 -0.313956
v 0.928272 0.087878 -0.069153
v 0.918237 0.237226 -0.406918
v 0.234094 -0.588184 -0.580396
v 0.043402 -0.526183 -0.673218
v 0.084477 0.508001 -0.728858
v 0.230910 0.509148 -0.667126
v 0.170650 0.428695 -0.786012
v 0.367850 0.458949 -0.750414
v 0.218117 0.124808 -0.947435
v 0.094011 -0.531101 -0.701928
v 0.236407 -0.481790 -0.774331
v 0.155062 -0.500112 -0.680635
v 0.459777 0.462427 -0.686960
v -0.062649 -0.739752 0.348950
v 0.188971 -0.677962 0.293667
v 0.158855 -0.695712 0.468659
v -0.504905 0.530209 -0.478482
v -0.252001 0.361358 -0.602973
v -0.305594 0.432689 0.530370
v -0.404477 0.395379 0.435406
v -0.281545 0.413229 0.617118
v -0.218896 0.328288 0.704065
v -0.643792 0.519487 -0.320087
v -0.378196 0.540870 -0.500046
v -0.626240 0.530188 -0.427712
v 0.250514 -0.660266 -0.279214
v 0.331839 -0.632520 -0.244554
v 0.231394 -0.669809 -0.375455
v 0.180046 -0.640210 -0.544396
v 0.288441 -0.614940 -0.451825
v -0.256196 0.452772 -0.549781
v -0.640182 0.151428 0.315676
v 0.186719 -0.390314 -0.930637
v 0.100725 -0.409989 -0.882506
v 0.119534 -0.270107 -1.022845
v -0.618710 0.282719 0.280523
v -0.649756 0.204844 0.234578
v -0.656830 0.260522 0.320622
v -0.581747 0.143770 0.435586
v -0.508580 -0.150730 -0.787910
v -0.288590 -0.269535 -0.896267
v 0.047505 -0.675419 0.197227
v -0.015099 -0.686736 0.100975
v -0.360948 -0.448609 -0.703264
v 0.056388 0.401664 0.460405
v -0.066790 0.273535 0.745176
v -0.002365 0.310056 0.675411
v -0.448343 -0.637323 0.076937
v -0.444091 -0.695385 -0.074639
v -0.461434 -0.657221 0.149912
v 0.228092 0.085020 0.791224
v 0.192478 0.147892 0.845526
v -0.091635 0.228192 0.756329
v 0.025635 0.258508 0.854369
v 0.307625 0.145886 0.685019
v 0.391103 0.190329 0.688850
v 0.260317 0.033008 0.816257
v 0.724493 -0.471763 0.311771
v 0.695233 -0.543869 0.069979
v 0.334982 0.106315 0.774108
v 0.502601 -0.585437 0.277157
v 0.704253 -0.553876 0.327996
v 0.518512 -0.553479 0.363874
v -0.464973 0.127433 0.587452
v 0.858669 -0.001631 0.154647
v 0.853567 0.120320 0.116187
v 0.850839 0.290091 -0.028307
v 0.774987 0.352431 0.124831
v -0.063935 -0.047962 0.879940
v 0.454146 -0.348320 -0.571242
v -0.136071 0.147745 0.706259
v 0.494880 0.654938 -0.039956
v 0.376111 0.583331 0.078078
v 0.626458 0.574461 0.051863
v 0.176705 0.686987 0.010645
v 0.197750 0.611242 -0.136614
v 0.014288 0.529066 -0.590831
v -0.043330 0.503970 -0.665803
v -0.573622 0.533401 0.015627
v -0.592691 0.503486 0.088927
v -0.448345 0.602654 0.083071
v -0.417095 0.608579 0.311566
v -0.512652 0.511977 0.334185
v -0.542686 0.508926 0.167844
v -0.476847 0.540541 0.123519
v 0.424985 0.518632 0.123721
v 0.640174 0.478740 0.104052
v 0.553419 0.499357 -0.483391
v 0.608426 0.558676 -0.370846
v 0.570709 -0.610474 -0.239012
v 0.596219 -0.559256 -0.301610
v 0.497595 -0.628468 -0.330579
v 0.533152 0.591520 -0.175109
v 0.459986 0.622721 -0.110400
v 0.366537 0.639159 -0.029005
v 0.687438 -0.522249 -0.142999
v -0.794119 -0.209676 -0.130440
v 0.300047 0.659401 -0.059003
v 0.674729 -0.518053 -0.068811
v 0.166453 -0.489676 -0.826371
v 0.723180 -0.551500 -0.040637
v 0.327981 -0.575327 -0.327658
v 0.306185 -0.568202 -0.406409
v -0.679694 -0.515898 -0.459193
v -0.806618 0.064962 0.363450
v -0.712704 0.135797 0.264201
v 0.716679 0.222025 0.554862
v -0.764590 -0.188268 0.258889
v 0.764813 -0.417150 -0.167346
v 0.671353 -0.341908 -0.346690
v 0.489360 0.475783 -0.610385
v 0.483847 0.302057 -0.708190
v -0.725519 0.362810 -0.015088
v -0.688333 0.464819 -0.082999
v 0.121650 0.301588 0.846050
v 0.169216 0.216525 0.864114
v -0.013656 0.395693 -0.729591
v -0.149710 0.453572 -0.628310
v -0.268165 0.628217 -0.047419
v -0.042573 0.531693 -0.352142
v 0.017838 0.585338 -0.225936
v -0.094134 -0.685641 0.395911
v 0.074194 -0.694803 0.474967
v -0.097670 0.547822 -0.459277
v -0.283123 0.549546 -0.297673
v -0.118658 0.613399 -0.223161
v -0.606485 0.297805 0.358519
v 0.146384 -0.668468 0.067651
v -0.367745 0.562051 -0.158176
v -0.152684 -0.734658 -0.071373
v 0.060527 -0.653037 -0.030882
v 0.400637 -0.368753 -0.613464
v -0.482297 0.574861 -0.197273
v -0.743506 0.204225 -0.388658
v -0.676358 0.232187 -0.507873
v 0.593097 0.453053 -0.592137
v 0.504997 0.396933 -0.660988
v -0.517060 -0.644971 -0.004546
v -0.475351 -0.642322 -0.021911
v -0.447059 -0.740965 -0.049879
v -0.371916 -0.808795 0.038339
v -0.387034 -0.776265 -0.090509
v -0.131614 -0.752471 0.315106
v -0.380074 -0.732199 0.295819
v -0.381775 -0.657479 0.316275
v -0.558111 0.577001 -0.302668
v 0.890510 -0.329391 -0.148641
v 0.749330 -0.431560 -0.129690
v -0.115521 0.317948 -0.725564
v 0.137357 0.554502 0.209435
v 0.250179 0.503258 0.271886
v -0.215912 0.502182 -0.568092
v -0.256769 0.687057 0.134649
v -0.752274 0.089520 -0.159263
v 0.530163 -0.212331 -0.718330
v 0.602239 0.591059 -0.256896
v -0.749250 0.275779 -0.355756
v 0.436100 0.637763 -0.167031
v 0.543265 0.597758 -0.319104
v 0.484968 0.583435 -0.256876
v 0.347781 0.653565 -0.139907
v 0.370801 0.542015 -0.290060
v 0.414839 0.607759 -0.245598
v 0.295396 -0.658391 0.252663
v -0.628499 -0.398533 0.445086
v -0.540808 -0.314823 0.504355
v -0.714607 0.312356 -0.073718
v -0.727935 -0.296120 0.231831
v -0.726930 -0.303370 0.319214
v 0.506325 0.285422 -0.667760
v 0.707721 0.510677 0.018776
v 0.792351 0.438022 -0.082367
v 0.698236 0.498083 -0.053902
v 0.769516 0.408461 0.080600
v 0.715506 0.474470 0.088684
v 0.646833 -0.519343 0.427886
v -0.587160 -0.421398 0.424920
v -0.124092 -0.558861 -0.503328
v -0.136036 -0.647696 -0.437380
v -0.030893 -0.150132 0.845906
v 0.182021 0.287527 0.602848
v 0.326592 0.277877 0.610969
v 0.691008 0.577168 -0.022617
v 0.686568 0.486075 0.174095
v -0.300837 0.439681 0.469263
v -0.567112 0.310227 0.282284
v 0.247602 -0.390904 -0.919346
v 0.581079 0.550323 -0.336916
v -0.574309 -0.168438 -0.783032
v -0.088948 -0.672744 -0.393685
v 0.207791 -0.444322 -0.675326
v -0.026652 -0.310254 -0.972145
v 0.351188 -0.580832 0.615859
v 0.043042 0.471359 0.362230
v 0.269427 0.188978 0.746767
v 0.095326 0.491727 0.276438
v -0.368017 -0.752569 -0.128406
v 0.375614 -0.533270 0.679197
v -0.712330 -0.173935 -0.585074
v -0.228043 0.452967 0.567300
v -0.078122 0.457191 0.498770
v -0.012767 0.419891 0.462789
v 0.864705 0.195650 0.010940
v 0.669446 0.573175 -0.060450
v 0.835822 0.429690 -0.336062
vt 0.782150 0.502936
vt 0.807946 0.506472
vt 0.795386 0.533109
vt 0.071536 0.702034
vt 0.111192 0.617596
vt 0.122277 0.672457
vt 0.888650 0.320863
vt 0.958172 0.339947
vt 0.896687 0.349369
vt 0.582446 0.142378
vt 0.579341 0.186757
vt 0.554013 0.153617
vt 0.415604 0.714094
vt 0.446240 0.745257
vt 0.421750 0.772210
vt 0.511095 0.216184
vt 0.485794 0.277209
vt 0.462477 0.225452
vt 0.601476 0.167254
vt 0.615035 0.201797
vt 0.591656 0.198599
vt 0.481779 0.510669
vt 0.437571 0.512702
vt 0.470319 0.464900
vt 0.778724 0.599031
vt 0.753211 0.696593
vt 0.756669 0.585782
vt 0.279882 0.698894
vt 0.329363 0.640637
vt 0.335175 0.724578
vt 0.896886 0.720837
vt 0.875976 0.815526
vt 0.813298 0.624365
vt 0.044923 0.799489
vt 0.101420 0.758558
vt 0.074688 0.924371
vt 0.174854 0.149334
vt 0.168436 0.186616
vt 0.163837 0.147517
vt 0.880843 0.060717
vt 0.929878 0.147603
vt 0.877281 0.145785
vt 0.910191 0.670707
vt 0.833557 0.601947
vt 0.832199 0.554810
vt 0.837100 0.524420
vt 0.862733 0.540868
vt 0.072468 0.252324
vt 0.063236 0.228054
vt 0.083805 0.229797
vt 0.233076 0.605712
vt 0.192584 0.610591
vt 0.219675 0.579743
vt 0.191131 0.208096
vt 0.194170 0.149375
vt 0.220190 0.196978
vt 0.156619 0.412404
vt 0.180085 0.360505
vt 0.194641 0.376616
vt 0.581991 0.259809
vt 0.548643 0.349561
vt 0.529832 0.314544
vt 0.541551 0.273012
vt 0.537329 0.144750
vt 0.561127 0.214472
vt 0.930562 0.314165
vt 0.989434 0.277036
vt 0.444987 0.466512
vt 0.401357 0.482923
vt 0.389081 0.449225
vt 0.349471 0.445620
vt 0.310093 0.402169
vt 0.391237 0.406557
vt 0.307540 0.456461
vt 0.316043 0.500404
vt 0.297376 0.529012
vt 0.189970 0.438037
vt 0.176569 0.420257
vt 0.743171 0.424736
vt 0.729126 0.388263
vt 0.769610 0.389338
vt 0.136697 0.302104
vt 0.142821 0.327756
vt 0.123439 0.354840
vt 0.150448 0.184496
vt 0.613610 0.333377
vt 0.634847 0.381930
vt 0.588285 0.376755
vt 0.052022 0.457621
vt 0.011141 0.450075
vt 0.045934 0.344790
vt 0.867404 0.110459
vt 0.829619 0.095915
vt 0.836020 0.040968
vt 0.761296 0.305237
vt 0.760958 0.213242
vt 0.798327 0.284169
vt 0.501372 0.455875
vt 0.511221 0.656283
vt 0.536097 0.651455
vt 0.508905 0.706925
vt 0.881893 0.415386
vt 0.834230 0.427927
vt 0.852732 0.371519
vt 0.806617 0.416475
vt 0.597502 0.411437
vt 0.521249 0.461559
vt 0.535969 0.563905
vt 0.512501 0.532355
vt 0.876302 0.262535
vt 0.980315 0.240944
vt 0.848834 0.356192
vt 0.570391 0.483485
vt 0.538890 0.447641
vt 0.018651 0.544569
vt 0.806210 0.159250
vt 0.820565 0.166222
vt 0.809378 0.209453
vt 0.828484 0.276411
vt 0.443930 0.672401
vt 0.422492 0.655206
vt 0.442321 0.651733
vt 0.528134 0.587239
vt 0.542990 0.620383
vt 0.518495 0.625089
vt 0.790302 0.208549
vt 0.770208 0.198000
vt 0.788292 0.132775
vt 0.185796 0.068381
vt 0.178722 0.092454
vt 0.171562 0.047254
vt 0.494774 0.694237
vt 0.502688 0.643112
vt 0.484663 0.674741
vt 0.487111 0.607274
vt 0.158503 0.275337
vt 0.143081 0.263315
vt 0.171620 0.263332
vt 0.203545 0.316551
vt 0.440888 0.629856
vt 0.409643 0.634828
vt 0.424401 0.588543
vt 0.309299 0.548481
vt 0.278502 0.612822
vt 0.077936 0.350173
vt 0.062465 0.292050
vt 0.081431 0.302269
vt 0.089232 0.322878
vt 0.106864 0.309015
vt 0.104335 0.341403
vt 0.393976 0.122444
vt 0.455329 0.116763
vt 0.415560 0.202842
vt 0.868999 0.232393
vt 0.961506 0.177055
vt 0.090894 0.403909
vt 0.131322 0.424980
vt 0.142048 0.447399
vt 0.120226 0.431364
vt 0.869668 0.328317
vt 0.878697 0.365350
vt 0.378137 0.274911
vt 0.352801 0.288921
vt 0.343576 0.254232
vt 0.602408 0.622755
vt 0.592761 0.544621
vt 0.627525 0.556447
vt 0.426073 0.068863
vt 0.137804 0.147994
vt 0.089477 0.262526
vt 0.082773 0.254282
vt 0.104684 0.140120
vt 0.090414 0.141781
vt 0.102727 0.106457
vt 0.473178 0.158511
vt 0.526805 0.099963
vt 0.558744 0.115296
vt 0.950689 0.482065
vt 0.911092 0.404145
vt 0.985415 0.409665
vt 0.131775 0.259039
vt 0.122639 0.230321
vt 0.150448 0.246009
vt 0.086797 0.205025
vt 0.098081 0.187175
vt 0.097130 0.257928
vt 0.508531 0.351243
vt 0.499216 0.409740
vt 0.471011 0.344318
vt 0.516054 0.287345
vt 0.054178 0.600182
vt 0.092107 0.538080
vt 0.087159 0.613093
vt 0.175469 0.538240
vt 0.152452 0.490905
vt 0.166042 0.468493
vt 0.131427 0.216486
vt 0.122070 0.193436
vt 0.122293 0.577824
vt 0.112550 0.491070
vt 0.102457 0.476720
vt 0.110725 0.436864
vt 0.158747 0.113019
vt 0.151274 0.127741
vt 0.126431 0.093090
vt 0.822092 0.724649
vt 0.803525 0.862451
vt 0.479828 0.812970
vt 0.152571 0.221139
vt 0.172084 0.216579
vt 0.182830 0.283585
vt 0.952102 0.571661
vt 0.922773 0.639509
vt 0.892365 0.616927
vt 0.601293 0.514805
vt 0.617315 0.493294
vt 0.569300 0.440262
vt 0.596271 0.476930
vt 0.393154 0.570419
vt 0.389136 0.597140
vt 0.360120 0.506176
vt 0.812184 0.591798
vt 0.828340 0.588735
vt 0.808084 0.544473
vt 0.820388 0.522171
vt 0.502726 0.582786
vt 0.501483 0.505050
vt 0.890228 0.312159
vt 0.874423 0.313831
vt 0.553768 0.652140
vt 0.590158 0.626142
vt 0.524465 0.702011
vt 0.579179 0.616724
vt 0.582969 0.535767
vt 0.866456 0.266186
vt 0.865783 0.311606
vt 0.855047 0.227300
vt 0.856202 0.191192
vt 0.204197 0.249675
vt 0.221503 0.255737
vt 0.195681 0.285370
vt 0.192567 0.249216
vt 0.691645 0.650428
vt 0.679139 0.603484
vt 0.731984 0.635113
vt 0.212219 0.825104
vt 0.401925 0.315905
vt 0.063291 0.270360
vt 0.046433 0.220177
vt 0.732929 0.578548
vt 0.693173 0.539425
vt 0.728941 0.541151
vt 0.685881 0.480251
vt 0.673567 0.376622
vt 0.697096 0.432538
vt 0.163872 0.084421
vt 0.132047 0.085662
vt 0.148334 0.097811
vt 0.050223 0.298463
vt 0.013774 0.325504
vt 0.032597 0.262495
vt 0.910854 0.084933
vt 0.138381 0.062636
vt 0.256795 0.439996
vt 0.236964 0.440728
vt 0.213170 0.385929
vt 0.241900 0.558467
vt 0.366731 0.616960
vt 0.349539 0.576605
vt 0.418526 0.672371
vt 0.435982 0.705924
vt 0.109753 0.158454
vt 0.122641 0.156440
vt 0.244624 0.302225
vt 0.220319 0.354933
vt 0.712237 0.410354
vt 0.698885 0.371812
vt 0.464094 0.592338
vt 0.449537 0.554328
vt 0.467822 0.551700
vt 0.485457 0.551574
vt 0.109341 0.178402
vt 0.103321 0.225146
vt 0.114615 0.207276
vt 0.056462 0.518866
vt 0.098644 0.442835
vt 0.105734 0.419247
vt 0.399835 0.530861
vt 0.103993 0.081955
vt 0.121943 0.067157
vt 0.557202 0.271446
vt 0.602920 0.241623
vt 0.651860 0.603606
vt 0.649092 0.628145
vt 0.056612 0.556284
vt 0.983223 0.326536
vt 0.975982 0.365703
vt 0.058536 0.200529
vt 0.077416 0.185896
vt 0.087109 0.178001
vt 0.541653 0.423044
vt 0.096178 0.154014
vt 0.898523 0.582993
vt 0.893050 0.507931
vt 0.863459 0.600776
vt 0.445544 0.607219
vt 0.481927 0.626698
vt 0.701932 0.733259
vt 0.730661 0.697585
vt 0.728603 0.758779
vt 0.750991 0.790614
vt 0.761977 0.715898
vt 0.783243 0.861078
vt 0.473512 0.638235
vt 0.453479 0.676511
vt 0.460769 0.641941
vt 0.776188 0.688988
vt 0.464837 0.312055
vt 0.420029 0.336695
vt 0.423639 0.280616
vt 0.139148 0.510937
vt 0.148496 0.615245
vt 0.178379 0.229013
vt 0.160903 0.252152
vt 0.179049 0.204867
vt 0.180205 0.168664
vt 0.128651 0.460762
vt 0.154209 0.532589
vt 0.127667 0.484985
vt 0.429353 0.523516
vt 0.413176 0.519472
vt 0.438091 0.547961
vt 0.452993 0.588745
vt 0.432558 0.575671
vt 0.162811 0.582425
vt 0.105577 0.264796
vt 0.470620 0.729647
vt 0.484100 0.707915
vt 0.490506 0.777680
vt 0.122036 0.286020
vt 0.107947 0.290776
vt 0.118233 0.276153
vt 0.115176 0.240358
vt 0.613476 0.673824
vt 0.563840 0.701023
vt 0.447261 0.362462
vt 0.460306 0.388429
vt 0.551015 0.608879
vt 0.236439 0.165757
vt 0.242158 0.206168
vt 0.197181 0.124521
vt 0.226119 0.090049
vt 0.216350 0.140772
vt 0.542242 0.370694
vt 0.538217 0.412373
vt 0.539197 0.351724
vt 0.846244 0.151869
vt 0.830801 0.138439
vt 0.185699 0.116452
vt 0.207227 0.076868
vt 0.830528 0.205700
vt 0.835577 0.232147
vt 0.858729 0.155139
vt 0.989434 0.351205
vt 0.328816 0.448638
vt 0.846501 0.189586
vt 0.357489 0.358732
vt 0.315134 0.360118
vt 0.349216 0.327988
vt 0.289838 0.427993
vt 0.297015 0.364544
vt 0.133104 0.190975
vt 0.906343 0.435642
vt 0.885623 0.449315
vt 0.858258 0.491603
vt 0.845825 0.445417
vt 0.149735 0.041258
vt 0.392175 0.667709
vt 0.166683 0.115175
vt 0.507647 0.096523
vt 0.775338 0.481357
vt 0.763680 0.431962
vt 0.800105 0.463385
vt 0.719514 0.443932
vt 0.718724 0.502126
vt 0.680837 0.682388
vt 0.226364 0.638954
vt 0.205040 0.658987
vt 0.147609 0.378296
vt 0.144376 0.357852
vt 0.170214 0.364834
vt 0.175654 0.309329
vt 0.159163 0.300781
vt 0.152057 0.338194
vt 0.161645 0.351197
vt 0.777424 0.416642
vt 0.810577 0.440975
vt 0.787095 0.618739
vt 0.792474 0.580163
vt 0.372543 0.535182
vt 0.368664 0.558584
vt 0.387921 0.553014
vt 0.778389 0.523924
vt 0.767866 0.500637
vt 0.754951 0.468845
vt 0.342799 0.521224
vt 0.651860 0.506333
vt 0.644733 0.418608
vt 0.740885 0.475455
vt 0.338699 0.496084
vt 0.468292 0.683648
vt 0.328738 0.485482
vt 0.011141 0.778837
vt 0.013899 0.659785
vt 0.415382 0.550160
vt 0.421604 0.572657
vt 0.587798 0.514264
vt 0.080104 0.260925
vt 0.094003 0.279348
vt 0.861501 0.325082
vt 0.042659 0.250936
vt 0.321498 0.546848
vt 0.340372 0.614469
vt 0.780813 0.663167
vt 0.800596 0.721913
vt 0.113782 0.375160
vt 0.126270 0.398748
vt 0.799360 0.130266
vt 0.817032 0.134289
vt 0.799005 0.092941
vt 0.222525 0.770007
vt 0.188409 0.706591
vt 0.225957 0.710324
vt 0.179870 0.629797
vt 0.198919 0.409370
vt 0.228062 0.533799
vt 0.247450 0.488077
vt 0.472035 0.290838
vt 0.438590 0.276658
vt 0.209713 0.565677
vt 0.184843 0.490071
vt 0.220422 0.474346
vt 0.124193 0.270801
vt 0.433446 0.406443
vt 0.177209 0.441770
vt 0.488611 0.429057
vt 0.451020 0.432177
vt 0.404902 0.672731
vt 0.158215 0.442514
vt 0.076592 0.469329
vt 0.083095 0.510783
vt 0.798100 0.651728
vt 0.791828 0.688759
vt 0.551967 0.390495
vt 0.546494 0.396249
vt 0.532462 0.405538
vt 0.517837 0.387140
vt 0.523775 0.417823
vt 0.480183 0.321800
vt 0.518329 0.321699
vt 0.522762 0.303620
vt 0.143013 0.463429
vt 0.288276 0.555395
vt 0.505627 0.801212
vt 0.162704 0.887380
vt 0.323263 0.532324
vt 0.157945 0.691068
vt 0.729343 0.359258
vt 0.756831 0.350317
vt 0.177396 0.589511
vt 0.940148 0.130711
vt 0.237181 0.353654
vt 0.202858 0.354439
vt 0.064189 0.395607
vt 0.382378 0.741242
vt 0.789030 0.547351
vt 0.088255 0.460356
vt 0.321757 0.745636
vt 0.381068 0.773491
vt 0.291674 0.724472
vt 0.761734 0.515436
vt 0.779514 0.563755
vt 0.769271 0.546870
vt 0.747510 0.503303
vt 0.750126 0.560391
vt 0.757717 0.539088
vt 0.401209 0.354400
vt 0.577047 0.238044
vt 0.569481 0.196897
vt 0.104071 0.385808
vt 0.621423 0.241636
vt 0.615054 0.294710
vt 0.609098 0.265893
vt 0.829844 0.969175
vt 0.084615 0.971291
vt 0.634895 0.299703
vt 0.636889 0.275238
vt 0.808082 0.713259
vt 0.815796 0.471879
vt 0.831779 0.503403
vt 0.816352 0.491141
vt 0.836067 0.457075
vt 0.822023 0.451591
vt 0.320898 0.290910
vt 0.317603 0.314710
vt 0.569649 0.245713
vt 0.503272 0.563956
vt 0.498917 0.534027
vt 0.131943 0.028709
vt 0.237705 0.149234
vt 0.676291 0.531445
vt 0.785951 0.219002
vt 0.811103 0.244480
vt 0.806398 0.484477
vt 0.816127 0.059544
vt 0.886084 0.035887
vt 0.463182 0.028709
vt 0.820374 0.426620
vt 0.178116 0.244838
vt 0.130222 0.287622
vt 0.459533 0.730153
vt 0.787610 0.572469
vt 0.617649 0.649818
vt 0.077360 0.166182
vt 0.490402 0.524604
vt 0.970066 0.526357
vt 0.013865 0.363369
vt 0.451467 0.649660
vt 0.516169 0.740356
vt 0.380196 0.226633
vt 0.743839 0.249639
vt 0.728178 0.284921
vt 0.824692 0.183121
vt 0.246485 0.245830
vt 0.730370 0.322483
vt 0.701827 0.334542
vt 0.523875 0.430118
vt 0.371840 0.198336
vt 0.331651 0.246370
vt 0.638660 0.575260
vt 0.190520 0.218880
vt 0.216504 0.221141
vt 0.230158 0.215785
vt 0.862327 0.028709
vt 0.873773 0.481082
vt 0.804622 0.494521
vt 0.832806 0.571489
vt 0.298859 0.335980
vt 0.678181 0.650486
vt 0.069569 0.184723
vt 0.021595 0.572177
vt 0.364246 0.173043
vn 0.1114 0.9676 -0.2265
vn 0.6354 0.6802 0.3655
vn 0.1514 0.9616 -0.2289
vn -0.3125 0.4042 -0.8596
vn -0.3739 0.4445 -0.8140
vn -0.3921 0.4342 -0.8110
vn 0.8245 -0.0035 0.5659
vn 0.8788 -0.2731 0.3913
vn 0.9726 -0.0616 0.2241
vn -0.4104 0.4447 0.7961
vn -0.4701 -0.2672 0.8412
vn -0.4876 -0.0628 0.8708
vn 0.7605 -0.5070 -0.4056
vn 0.6694 -0.4590 -0.5841
vn 0.6758 -0.3814 -0.6307
vn -0.1795 -0.6086 0.7729
vn -0.2559 -0.5478 0.7965
vn -0.2672 -0.5646 0.7809
vn -0.7751 0.5716 0.2691
vn -0.8048 0.1913 0.5618
vn -0.8523 0.1145 0.5103
vn 0.1873 -0.9785 -0.0856
vn -0.0717 -0.9771 0.2002
vn 0.2492 -0.9627 -0.1055
vn 0.3098 0.8797 -0.3606
vn 0.1119 0.8894 -0.4431
vn -0.0215 0.9958 -0.0882
vn 0.8148 -0.3567 -0.4571
vn 0.4406 -0.7558 -0.4844
vn 0.5333 -0.6214 -0.5739
vn 0.5743 -0.1183 -0.8100
vn 0.6410 -0.2044 -0.7398
vn 0.5042 0.4895 -0.7115
vn -0.3500 0.3663 -0.8621
vn -0.3303 0.3711 -0.8678
vn -0.3178 0.1166 -0.9409
vn -0.2853 0.1177 0.9511
vn -0.3930 0.3668 0.8432
vn -0.1917 0.0570 0.9798
vn 0.0187 -0.2802 0.9597
vn 0.1792 -0.3498 0.9195
vn 0.1987 -0.0219 0.9798
vn 0.6198 -0.1410 -0.7720
vn 0.6723 0.3475 -0.6536
vn 0.8768 0.4266 0.2217
vn 0.8777 0.4714 0.0860
vn 0.9222 0.3678 0.1192
vn -0.7097 -0.5441 0.4474
vn -0.6657 -0.1881 0.7221
vn -0.3674 0.2461 0.8969
vn -0.2644 0.9606 -0.0852
vn -0.1243 0.9098 -0.3959
vn 0.1258 0.9502 -0.2851
vn 0.1074 0.7455 0.6578
vn 0.0651 0.6223 0.7800
vn 0.2969 0.8845 0.3599
vn -0.3877 0.9199 -0.0594
vn -0.4187 0.9000 0.1211
vn -0.1270 0.9875 -0.0931
vn -0.7383 -0.5113 0.4398
vn -0.6952 -0.7151 0.0721
vn -0.6532 -0.5763 0.4911
vn -0.6631 -0.7165 0.2165
vn -0.3933 -0.2709 0.8786
vn -0.6343 -0.2869 0.7179
vn 0.7361 -0.2616 0.6242
vn 0.5793 -0.7699 0.2675
vn 0.1402 -0.9898 -0.0255
vn 0.1637 -0.9860 0.0302
vn 0.1814 -0.9812 -0.0660
vn 0.2481 -0.9669 -0.0593
vn 0.6411 -0.7468 0.1766
vn 0.2276 -0.9712 -0.0703
vn 0.6838 -0.7259 0.0736
vn 0.4761 -0.7721 -0.4209
vn 0.8811 -0.4187 -0.2198
vn -0.1351 0.9030 -0.4077
vn -0.1493 0.8081 -0.5698
vn 0.2208 0.8320 0.5090
vn 0.1951 0.7993 0.5683
vn 0.2319 0.8523 0.4688
vn -0.8341 0.1335 0.5352
vn -0.8144 0.4905 0.3101
vn -0.8449 0.3782 0.3782
vn -0.5791 0.1605 0.7992
vn -0.8284 -0.5576 0.0530
vn -0.9506 -0.3048 0.0589
vn -0.8032 -0.5885 0.0920
vn -0.9871 0.1130 -0.1130
vn -0.9845 0.0432 -0.1699
vn -0.9949 0.0502 -0.0868
vn 0.2678 -0.1129 0.9568
vn 0.1479 0.1474 0.9779
vn -0.2786 0.1940 0.9406
vn 0.1227 0.8428 0.5240
vn 0.2813 0.7879 0.5477
vn 0.1490 0.8437 0.5158
vn 0.1654 -0.9551 -0.2459
vn -0.0920 -0.7621 -0.6409
vn -0.3881 -0.5140 -0.7650
vn -0.1241 -0.5057 -0.8537
vn 0.9844 0.1541 0.0846
vn 0.7962 0.5867 0.1479
vn 0.6911 0.6037 0.3973
vn 0.1251 0.9552 0.2683
vn -0.7773 -0.5969 0.1986
vn -0.0483 -0.9069 -0.4184
vn -0.0310 -0.8742 -0.4845
vn -0.2009 -0.8126 -0.5471
vn 0.6016 -0.0578 0.7967
vn 0.5838 -0.3892 0.7125
vn 0.2316 0.7891 0.5688
vn -0.5263 -0.8388 -0.1389
vn -0.3688 -0.8927 -0.2589
vn -0.8734 0.0853 -0.4794
vn 0.5033 0.8391 0.2063
vn 0.8279 0.2351 0.5092
vn 0.3199 0.8313 0.4545
vn 0.1916 0.8087 0.5560
vn 0.2315 -0.9262 -0.2974
vn 0.6158 -0.7862 -0.0520
vn -0.2581 -0.9591 -0.1159
vn -0.1846 -0.9594 -0.2130
vn -0.6298 -0.7345 -0.2523
vn -0.2798 -0.9524 -0.1207
vn 0.0230 0.8826 0.4695
vn 0.3046 0.8578 0.4138
vn 0.0893 0.9803 0.1763
vn -0.3784 0.4247 0.8225
vn -0.6209 0.5204 0.5863
vn 0.2579 -0.5916 -0.7639
vn 0.1739 -0.9532 -0.2474
vn 0.1465 -0.8456 -0.5134
vn 0.0076 -0.9639 -0.2662
vn -0.4073 0.0678 0.9108
vn -0.7491 0.3518 0.5613
vn -0.3703 0.3884 0.8437
vn 0.0998 0.9319 0.3488
vn 0.4878 -0.7291 -0.4799
vn 0.5314 -0.7003 -0.4765
vn 0.6541 -0.5407 -0.5289
vn 0.4215 -0.7216 -0.5491
vn 0.8651 -0.4749 -0.1615
vn -0.9886 0.1415 -0.0508
vn -0.9954 0.0488 0.0820
vn -0.9095 0.3947 0.1308
vn -0.7969 0.5139 0.3175
vn -0.7762 0.4981 0.3864
vn -0.8413 0.4258 0.3329
vn -0.1980 -0.5704 0.7971
vn -0.2331 -0.6298 0.7409
vn -0.2715 -0.5499 0.7898
vn 0.3909 0.1067 0.9142
vn 0.4041 -0.3423 0.8482
vn -0.9672 0.2481 0.0536
vn -0.7109 0.6945 -0.1107
vn -0.4759 0.8774 0.0602
vn -0.8711 0.4902 0.0296
vn 0.7237 0.4094 0.5555
vn 0.9628 0.1486 0.2255
vn 0.3190 -0.9385 0.1319
vn 0.1450 -0.9894 0.0008
vn 0.3732 -0.8475 0.3774
vn -0.7151 -0.0970 -0.6923
vn -0.6863 -0.5312 -0.4967
vn -0.9099 -0.0680 -0.4092
vn -0.2348 -0.5924 0.7707
vn -0.5837 -0.0752 0.8084
vn -0.0369 0.9165 0.3982
vn -0.4845 0.2794 0.8289
vn -0.4158 0.6139 0.6709
vn -0.4309 0.5416 0.7218
vn -0.5950 -0.0838 0.7993
vn -0.1296 -0.5560 0.8210
vn 0.9662 -0.1266 0.2247
vn 0.9811 -0.0777 0.1769
vn 0.9149 -0.3191 0.2473
vn -0.4432 0.5783 0.6850
vn -0.6091 0.0525 0.7913
vn -0.8134 0.5220 0.2565
vn 0.0403 0.4743 0.8794
vn -0.2026 0.4306 0.8795
vn 0.0811 0.7117 0.6978
vn -0.1911 -0.9611 0.1990
vn 0.2704 -0.9544 -0.1266
vn 0.3142 -0.9456 -0.0846
vn -0.1012 -0.8501 0.5168
vn -0.2844 0.4621 -0.8400
vn -0.3350 0.3631 -0.8694
vn -0.3434 0.4341 -0.8328
vn 0.0544 0.9629 -0.2644
vn -0.0078 0.9680 -0.2506
vn 0.1080 0.9937 -0.0278
vn -0.9673 0.0810 0.2402
vn -0.8526 -0.4961 0.1644
vn -0.2566 0.3956 -0.8818
vn -0.7266 0.3292 -0.6030
vn -0.9402 0.1821 -0.2877
vn -0.9933 0.0725 0.0891
vn -0.4593 0.0658 0.8858
vn -0.1348 0.0293 0.9904
vn -0.5095 -0.0648 0.8580
vn 0.4922 0.2790 -0.8245
vn 0.5965 0.2025 -0.7766
vn 0.1773 -0.0767 -0.9811
vn -0.8225 0.4559 0.3399
vn -0.4453 0.7633 0.4680
vn -0.1836 0.4905 0.8519
vn 0.9131 0.1509 -0.3788
vn -0.8797 -0.4213 -0.2204
vn -0.9566 -0.2803 -0.0791
vn -0.7743 -0.6136 0.1547
vn -0.7863 -0.6028 0.1350
vn -0.0077 -0.7819 -0.6234
vn 0.4933 -0.5303 -0.6895
vn 0.3043 -0.9396 0.1564
vn 0.3531 0.8276 -0.4364
vn 0.7400 0.6009 -0.3021
vn 0.6077 0.7872 -0.1047
vn 0.8664 0.4972 0.0471
vn -0.2463 -0.9509 -0.1873
vn -0.1127 -0.9213 -0.3721
vn 0.6684 -0.1439 0.7298
vn 0.6958 0.2271 0.6814
vn -0.2869 -0.6790 -0.6757
vn -0.4460 -0.3612 -0.8189
vn -0.2897 -0.4619 -0.8382
vn -0.1961 -0.7998 -0.5672
vn -0.2943 -0.8514 -0.4340
vn 0.4881 0.4599 0.7418
vn 0.3981 0.6113 0.6840
vn 0.1362 0.6767 0.7235
vn -0.2315 0.4310 0.8721
vn 0.3263 0.8023 0.4998
vn 0.2937 0.7640 0.5744
vn 0.1046 0.8006 0.5899
vn -0.1034 0.7920 0.6016
vn -0.1558 0.9756 -0.1544
vn -0.2618 0.9374 -0.2295
vn 0.0222 0.9779 -0.2078
vn 0.0336 0.4660 -0.8841
vn 0.3331 -0.9381 0.0948
vn -0.9592 -0.2466 0.1379
vn -0.6874 0.0203 0.7260
vn 0.1387 0.9861 -0.0912
vn -0.1053 0.9659 -0.2366
vn 0.0460 0.9680 -0.2465
vn -0.1062 0.9456 -0.3074
vn 0.0081 0.9424 0.3342
vn -0.0707 0.9973 0.0195
vn -0.8615 0.2082 0.4630
vn -0.0866 0.2935 0.9520
vn -0.2944 0.3137 0.9027
vn -0.9945 0.0274 0.1007
vn -0.9207 -0.2862 0.2654
vn -0.5933 -0.0185 0.8047
vn -0.1291 0.9285 -0.3482
vn 0.0257 0.9682 -0.2489
vn 0.6772 -0.3878 -0.6253
vn 0.7089 -0.3507 -0.6119
vn 0.9129 -0.4017 -0.0719
vn 0.7364 -0.4827 -0.4740
vn -0.8544 -0.1192 0.5057
vn -0.7942 -0.3315 0.5092
vn 0.2733 0.7827 0.5592
vn 0.1367 0.9792 0.1495
vn 0.1447 0.8815 0.4494
vn 0.2018 0.7764 0.5970
vn -0.1987 -0.8424 -0.5008
vn -0.0549 -0.9979 -0.0331
vn -0.1899 -0.9649 -0.1814
vn -0.0915 -0.8780 -0.4698
vn -0.7774 -0.2221 0.5884
vn -0.6920 -0.3292 0.6424
vn -0.8097 -0.3118 0.4971
vn -0.8245 0.2570 -0.5040
vn -0.7760 0.6307 -0.0014
vn -0.9498 0.2966 0.0989
vn -0.0252 -0.9988 -0.0425
vn -0.3193 -0.5179 0.7936
vn -0.3301 -0.3943 0.8576
vn -0.7213 -0.6646 0.1949
vn -0.7792 -0.0828 0.6212
vn -0.6003 0.3150 -0.7351
vn -0.4195 0.4157 -0.8069
vn 0.8041 -0.4677 0.3670
vn 0.8533 -0.4375 0.2835
vn -0.5028 0.3533 0.7889
vn -0.0004 0.6129 0.7901
vn -0.6253 -0.7493 0.2179
vn -0.4710 0.7272 0.4993
vn 0.9914 0.1047 0.0779
vn 0.9607 0.1600 0.2266
vn 0.9221 0.3505 -0.1641
vn 0.6025 -0.5556 -0.5729
vn -0.0424 -0.9339 -0.3549
vn -0.1215 0.7653 -0.6321
vn -0.0038 0.9333 -0.3591
vn -0.1175 0.6643 -0.7382
vn 0.3403 0.5745 -0.7444
vn 0.2272 0.2831 -0.9318
vn 0.0350 -0.9273 -0.3725
vn 0.1194 -0.9606 -0.2509
vn 0.5406 -0.7903 -0.2883
vn 0.5870 0.5568 -0.5877
vn -0.3250 -0.9298 0.1725
vn 0.2036 -0.9760 -0.0775
vn 0.1983 -0.9404 0.2761
vn -0.2147 0.6850 -0.6962
vn -0.4245 0.4556 -0.7823
vn -0.3984 0.8885 0.2277
vn -0.7036 0.6400 0.3086
vn -0.1690 0.7542 0.6345
vn -0.3623 0.4363 0.8236
vn -0.7360 0.6767 0.0190
vn 0.0338 0.8068 -0.5897
vn -0.5535 0.7216 -0.4157
vn 0.1161 -0.9796 0.1639
vn 0.2618 -0.9626 -0.0688
vn 0.4613 -0.8856 -0.0535
vn 0.1939 -0.8527 -0.4851
vn 0.8432 -0.4868 -0.2279
vn -0.4555 0.4985 -0.7375
vn -0.7756 0.1913 0.6015
vn -0.0208 -0.6641 -0.7474
vn 0.0275 -0.6673 -0.7443
vn -0.1061 -0.4465 -0.8885
vn -0.5361 0.8287 -0.1605
vn -0.8723 0.4465 0.1993
vn -0.9021 0.3257 0.2832
vn -0.4297 -0.0834 0.8991
vn -0.2719 0.3489 -0.8968
vn -0.3142 0.1265 -0.9409
vn 0.1816 -0.9707 -0.1571
vn 0.2669 -0.9614 -0.0668
vn -0.3215 -0.8641 -0.3872
vn 0.2354 0.8326 0.5013
vn -0.1897 0.6402 0.7443
vn 0.1753 0.9363 0.3041
vn -0.8091 -0.5874 -0.0161
vn -0.7724 -0.6281 0.0945
vn -0.7844 -0.6198 0.0239
vn 0.3840 0.0939 0.9185
vn 0.4239 -0.1793 0.8878
vn -0.5416 0.2322 0.8079
vn -0.3446 0.4613 0.8176
vn 0.2769 0.6897 0.6690
vn -0.0126 0.7538 0.6570
vn 0.3834 0.1943 0.9029
vn 0.9148 -0.3287 0.2346
vn 0.2098 -0.9767 -0.0446
vn -0.1103 0.6986 0.7070
vn 0.2281 -0.9651 0.1284
vn 0.5428 -0.7813 0.3080
vn 0.3274 -0.9274 0.1810
vn -0.8050 -0.1896 0.5621
vn 0.9784 -0.0162 0.2062
vn 0.9602 0.2092 0.1851
vn 0.9174 0.3470 0.1949
vn 0.9544 0.2863 0.0839
vn -0.4475 -0.2413 0.8611
vn 0.5997 -0.6169 -0.5096
vn -0.5238 0.1524 0.8381
vn 0.0798 0.9933 0.0827
vn 0.2247 0.8246 0.5191
vn 0.3612 0.6881 0.6293
vn 0.0729 0.9923 0.1002
vn -0.0018 0.9536 -0.3008
vn -0.1337 0.9910 -0.0028
vn -0.3670 0.7537 -0.5451
vn -0.6101 0.7596 0.2254
vn -0.6922 0.6922 0.2042
vn -0.6576 0.7203 0.2209
vn -0.4263 0.8176 0.3869
vn -0.7014 0.5021 0.5058
vn -0.5954 0.7884 0.1540
vn -0.6291 0.7559 0.1809
vn 0.2823 0.8578 0.4295
vn 0.2143 0.9152 0.3412
vn 0.2592 0.9015 -0.3465
vn -0.1153 0.9578 -0.2631
vn 0.3854 -0.9210 0.0554
vn 0.6945 -0.5477 -0.4665
vn 0.1752 -0.9182 -0.3551
vn -0.0816 0.9627 -0.2580
vn 0.1503 0.9674 -0.2035
vn 0.1471 0.9610 0.2341
vn 0.6807 -0.7325 0.0029
vn -0.9986 -0.0394 0.0354
vn 0.0746 0.9921 -0.1006
vn 0.3089 -0.9252 -0.2203
vn 0.1228 -0.8592 -0.4967
vn 0.0188 -0.9479 -0.3179
vn 0.4035 -0.8422 -0.3574
vn 0.5341 -0.7613 -0.3675
vn -0.6309 -0.7508 -0.1954
vn -0.9195 0.2274 0.3207
vn -0.4217 0.8626 0.2795
vn 0.3418 0.7080 0.6180
vn -0.9096 -0.1711 0.3786
vn 0.5439 -0.7670 -0.3405
vn 0.5000 -0.6708 -0.5477
vn 0.5606 0.6710 -0.4852
vn 0.7497 -0.0440 -0.6603
vn -0.9709 0.1543 0.1833
vn -0.8169 0.5609 0.1339
vn 0.1941 0.7488 0.6337
vn 0.3032 0.0792 0.9496
vn -0.3913 0.3840 -0.8363
vn -0.4352 0.5330 -0.7255
vn 0.0847 0.9404 -0.3294
vn -0.1290 0.9698 -0.2066
vn -0.2054 0.9270 -0.3136
vn -0.3067 -0.6597 0.6861
vn -0.1568 -0.7651 0.6245
vn 0.2129 0.9526 -0.2173
vn 0.0393 0.9772 -0.2086
vn 0.0121 0.9487 -0.3158
vn -0.2784 0.8563 0.4349
vn 0.1440 -0.9837 -0.1076
vn -0.0831 0.9009 -0.4259
vn 0.2904 -0.9499 -0.1150
vn 0.1393 -0.9848 -0.1034
vn 0.8382 -0.4727 -0.2719
vn -0.0251 0.9996 -0.0073
vn -0.9563 0.1460 -0.2532
vn -0.6991 0.3333 -0.6325
vn 0.4145 0.5636 -0.7145
vn 0.6547 0.2384 -0.7173
vn -0.4469 -0.8944 -0.0144
vn -0.4657 -0.8805 0.0883
vn -0.8647 -0.4418 -0.2387
vn -0.3162 -0.9473 -0.0511
vn -0.3458 -0.8295 -0.4386
vn 0.3218 -0.8695 0.3747
vn -0.5317 -0.5843 0.6131
vn -0.3981 -0.5866 0.7052
vn -0.2903 0.9559 -0.0435
vn 0.9006 -0.4333 -0.0338
vn 0.4711 -0.7896 -0.3931
vn -0.3801 0.4013 -0.8333
vn 0.1264 0.8190 0.5597
vn 0.1241 0.8089 0.5747
vn -0.4100 0.7179 -0.5625
vn -0.2176 0.9591 0.1811
vn -0.9930 0.1028 -0.0577
vn 0.5708 -0.6666 -0.4792
vn 0.0817 0.9314 -0.3547
vn -0.9374 0.1863 -0.2942
vn 0.3527 0.9236 -0.1503
vn 0.1837 0.9455 -0.2687
vn -0.0547 0.9812 -0.1850
vn -0.0218 0.9794 -0.2006
vn 0.0085 0.9626 -0.2709
vn 0.0579 0.7813 -0.6214
vn 0.2188 -0.9729 -0.0752
vn -0.6146 -0.7128 0.3379
vn -0.3980 -0.4125 0.8194
vn -0.9950 0.0832 0.0559
vn -0.8694 -0.4559 0.1906
vn -0.9305 -0.2849 0.2302
vn 0.5343 0.1958 -0.8223
vn 0.7371 0.6155 0.2788
vn 0.8741 0.4655 0.1387
vn 0.7763 0.5864 0.2311
vn 0.9062 0.4019 0.1316
vn 0.5195 0.8358 0.1776
vn 0.4398 -0.8974 0.0348
vn -0.6159 -0.6582 0.4329
vn -0.2102 -0.8220 -0.5293
vn -0.2586 -0.7403 -0.6206
vn -0.2966 -0.4723 0.8300
vn 0.0193 0.7082 0.7058
vn 0.1697 0.8274 0.5353
vn 0.7670 0.6416 0.0074
vn 0.2626 0.9394 0.2202
vn -0.6340 0.6629 0.3983
vn -0.7140 0.3653 0.5972
vn 0.4057 -0.6248 -0.6671
vn 0.2198 0.9167 -0.3335
vn -0.3870 0.2840 -0.8772
vn 0.2358 -0.9459 -0.2228
vn 0.1266 -0.9733 -0.1913
vn -0.2659 -0.3563 -0.8957
vn 0.0620 -0.8690 0.4910
vn 0.3099 0.8228 0.4763
vn 0.8213 0.4592 0.3386
vn 0.1916 0.8099 0.5543
vn -0.2482 -0.8706 -0.4247
vn 0.1315 -0.6249 0.7696
vn -0.9146 -0.0643 -0.3991
vn -0.1181 0.5759 0.8089
vn 0.5308 0.6698 0.5192
vn 0.2745 0.8365 0.4742
vn 0.9261 0.2857 0.2462
vn 0.6343 0.7729 0.0174
vn 0.8903 0.4077 0.2025
usemtl Material.001
s 1
f 1/1/1 2/2/2 3/3/3
f 4/4/4 5/5/5 6/6/6
f 7/7/7 8/8/8 9/9/9
f 10/10/10 11/11/11 12/12/12
f 13/13/13 14/14/14 15/15/15
f 16/16/16 17/17/17 18/18/18
f 19/19/19 20/20/20 21/21/21
f 22/22/22 23/23/23 24/24/24
f 25/25/25 26/26/26 27/27/27
f 28/28/28 29/29/29 30/30/30
f 31/31/31 32/32/32 33/33/33
f 34/34/34 35/35/35 36/36/36
f 37/37/37 38/38/38 39/39/39
f 40/40/40 41/41/41 42/42/42
f 43/43/43 33/33/33 44/44/44
f 45/45/45 46/46/46 47/47/47
f 48/48/48 49/49/49 50/50/50
f 51/51/51 52/52/52 53/53/53
f 54/54/54 55/55/55 56/56/56
f 57/57/57 58/58/58 59/59/59
f 60/60/60 61/61/61 62/62/62
f 63/63/63 64/64/64 65/65/65
f 66/66/66 67/67/67 8/8/8
f 68/68/68 69/69/69 70/70/70
f 71/71/71 72/72/72 73/73/73
f 74/74/74 75/75/75 76/76/76
f 77/77/77 78/78/78 59/59/59
f 79/79/79 80/80/80 81/81/81
f 82/82/82 83/83/83 84/84/84
f 38/38/38 85/85/85 39/39/39
f 86/86/86 87/87/87 88/88/88
f 89/89/89 90/90/90 91/91/91
f 92/92/92 93/93/93 94/94/94
f 95/95/95 96/96/96 97/97/97
f 98/98/98 22/22/22 24/24/24
f 99/99/99 100/100/100 101/101/101
f 102/102/102 103/103/103 104/104/104
f 105/105/105 95/95/95 97/97/97
f 106/106/106 88/88/88 87/87/87
f 107/107/107 108/108/108 109/109/109
f 110/110/110 111/111/111 66/66/66
f 112/112/112 105/105/105 97/97/97
f 113/113/113 108/108/108 114/114/114
f 115/115/115 90/90/90 89/89/89
f 116/116/116 117/117/117 118/118/118
f 97/97/97 119/119/119 112/112/112
f 120/120/120 121/121/121 122/122/122
f 123/123/123 124/124/124 125/125/125
f 126/126/126 127/127/127 128/128/128
f 129/129/129 130/130/130 94/131/94
f 99/99/99 101/101/101 131/132/131
f 132/133/132 133/134/133 134/135/134
f 135/136/135 136/137/136 137/138/137
f 59/59/59 58/58/58 138/139/138
f 139/140/139 140/141/140 141/142/141
f 142/143/142 29/29/29 143/144/143
f 144/145/144 145/146/145 146/147/146
f 147/148/147 148/149/148 149/150/149
f 150/151/150 151/152/151 152/153/152
f 153/154/153 154/155/154 111/111/111
f 149/150/149 155/156/155 147/148/147
f 156/157/156 157/158/157 158/159/158
f 104/104/104 159/160/159 160/161/160
f 161/162/161 162/163/162 163/164/163
f 164/165/164 165/166/165 166/167/166
f 34/34/34 4/4/4 35/35/35
f 151/152/151 150/151/150 167/168/167
f 85/85/85 168/169/168 39/39/39
f 169/170/169 170/171/170 50/50/50
f 171/172/171 172/173/172 173/174/173
f 64/64/64 18/18/18 174/175/174
f 173/176/173 172/177/172 64/64/64
f 175/178/175 176/179/176 177/180/177
f 143/144/143 29/29/29 28/28/28
f 178/181/178 179/182/179 180/183/180
f 181/184/181 182/185/182 183/186/183
f 184/187/184 185/188/185 186/189/186
f 187/190/187 17/17/17 16/16/16
f 188/191/188 189/192/189 190/193/190
f 191/194/191 192/195/192 193/196/193
f 180/183/180 179/182/179 194/197/194
f 179/182/179 195/198/195 194/197/194
f 196/199/196 189/192/189 197/200/197
f 197/200/197 198/201/198 199/202/199
f 39/39/39 200/203/200 37/37/37
f 201/204/201 168/169/168 202/205/202
f 203/206/203 32/32/32 204/207/204
f 15/15/15 14/14/14 205/208/205
f 206/209/206 207/210/207 180/183/180
f 135/136/135 137/138/137 208/211/208
f 143/212/143 28/213/28 209/214/209
f 209/214/209 43/43/43 44/44/44
f 166/167/166 210/215/210 211/216/211
f 113/113/113 212/217/212 213/218/213
f 214/219/214 141/142/141 215/220/215
f 216/221/216 70/70/70 69/69/69
f 217/222/217 218/223/218 33/33/33
f 45/45/45 219/224/219 220/225/220
f 221/226/221 125/125/125 134/135/134
f 222/227/222 107/107/107 109/109/109
f 223/228/223 224/229/224 110/110/110
f 225/230/225 226/231/226 227/232/227
f 228/233/228 108/108/108 229/234/229
f 230/235/230 231/236/231 232/237/232
f 41/41/41 153/154/153 233/238/233
f 138/139/138 234/239/234 235/240/235
f 236/241/236 137/138/137 237/242/237
f 238/243/238 239/244/239 240/245/240
f 35/35/35 241/246/241 36/36/36
f 18/18/18 152/153/152 151/152/151
f 242/247/242 162/163/162 161/162/161
f 49/49/49 243/248/243 244/249/244
f 48/48/48 243/248/243 49/49/49
f 245/250/245 246/251/246 247/252/247
f 248/253/248 249/254/249 250/255/250
f 200/203/200 251/256/251 130/130/130
f 201/204/201 252/257/252 253/258/253
f 254/259/254 87/260/87 255/261/255
f 144/145/144 91/91/91 254/259/254
f 167/262/167 41/41/41 40/40/40
f 200/203/200 256/263/256 251/256/251
f 248/264/248 257/265/257 258/266/258
f 51/51/51 53/53/53 239/267/239
f 259/268/259 260/269/260 215/220/215
f 261/270/261 262/271/262 13/13/13
f 263/272/263 173/174/173 264/273/264
f 264/273/264 173/174/173 202/205/202
f 138/139/138 265/274/265 266/275/266
f 267/276/267 249/254/249 268/277/268
f 269/278/269 270/279/270 271/280/271
f 272/281/272 221/226/221 134/135/134
f 195/198/195 273/282/273 263/272/263
f 274/283/274 182/185/182 275/284/275
f 115/115/115 89/89/89 276/285/276
f 198/201/198 277/286/277 278/287/278
f 279/288/279 216/221/216 69/69/69
f 23/23/23 271/280/271 270/279/270
f 202/205/202 280/289/280 281/290/281
f 256/263/256 253/258/253 252/257/252
f 148/149/148 84/84/84 149/150/149
f 199/202/199 198/201/198 278/287/278
f 60/60/60 62/62/62 282/291/282
f 20/20/20 283/292/283 21/21/21
f 115/293/115 284/294/284 164/165/164
f 276/285/276 285/295/285 115/115/115
f 8/8/8 67/67/67 286/296/286
f 177/180/177 176/179/176 287/297/287
f 20/298/20 288/299/288 50/50/50
f 182/185/182 181/184/181 289/300/289
f 98/98/98 107/107/107 222/227/222
f 290/301/290 113/113/113 114/114/114
f 291/302/291 172/173/172 171/172/171
f 182/185/182 263/272/263 273/282/273
f 292/303/292 293/304/293 143/212/143
f 45/45/45 47/47/47 294/305/294
f 295/306/295 139/140/139 141/142/141
f 271/280/271 296/307/296 269/278/269
f 297/308/297 298/309/298 299/310/299
f 241/311/241 300/312/300 301/313/301
f 302/314/302 303/315/303 304/316/304
f 269/278/269 302/314/302 304/316/304
f 25/25/25 305/317/305 26/26/26
f 26/26/26 300/312/300 299/310/299
f 306/318/306 307/319/307 308/320/308
f 308/320/308 242/247/242 161/162/161
f 197/200/197 309/321/309 196/199/196
f 310/322/310 6/6/6 5/5/5
f 311/323/311 312/324/312 207/210/207
f 313/325/313 314/326/314 54/54/54
f 158/159/158 157/158/157 315/327/315
f 316/328/316 317/329/317 192/195/192
f 318/330/318 319/331/319 69/69/69
f 320/332/320 321/333/321 322/334/322
f 196/199/196 316/328/316 323/335/323
f 191/194/191 316/328/316 192/195/192
f 324/336/324 182/185/182 274/283/274
f 84/84/84 148/149/148 82/82/82
f 325/337/325 326/338/326 327/339/327
f 262/271/262 261/270/261 120/120/120
f 328/340/328 329/341/329 330/342/330
f 179/182/179 178/181/178 331/343/331
f 226/231/226 332/344/332 333/345/333
f 334/346/334 307/319/307 186/189/186
f 185/188/185 335/347/335 186/189/186
f 336/348/336 228/233/228 225/230/225
f 124/124/124 100/100/100 99/99/99
f 55/55/55 96/349/96 337/350/337
f 338/351/338 128/352/128 339/353/339
f 325/337/325 327/339/327 205/208/205
f 340/354/340 341/355/341 342/356/342
f 212/217/212 113/113/113 290/301/290
f 93/93/93 343/357/343 344/358/344
f 345/359/345 129/129/129 346/360/346
f 347/361/347 348/362/348 118/118/118
f 349/363/349 343/357/343 93/93/93
f 350/364/350 177/180/177 287/297/287
f 351/365/351 74/74/74 72/72/72
f 42/42/42 41/41/41 233/238/233
f 42/42/42 233/238/233 352/366/352
f 353/367/353 354/368/354 355/369/355
f 72/72/72 177/370/177 350/371/350
f 264/273/264 195/198/195 263/272/263
f 356/372/356 168/169/168 85/85/85
f 357/373/357 143/212/143 293/304/293
f 358/374/358 359/375/359 360/376/360
f 251/256/251 256/263/256 361/377/361
f 94/131/94 130/130/130 251/256/251
f 362/378/362 30/30/30 29/29/29
f 259/268/259 215/220/215 362/378/362
f 37/37/37 363/379/363 345/359/345
f 339/353/339 55/55/55 338/351/338
f 64/64/64 174/175/174 280/380/280
f 151/152/151 167/168/167 280/380/280
f 364/381/364 365/382/365 366/383/366
f 248/253/248 367/384/367 368/385/368
f 358/374/358 360/376/360 102/102/102
f 176/179/176 9/9/9 287/297/287
f 369/386/369 298/309/298 297/308/297
f 369/387/369 370/388/370 52/52/52
f 371/389/371 84/84/84 372/390/372
f 371/389/371 373/391/373 57/57/57
f 81/81/81 95/95/95 105/105/105
f 360/376/360 103/103/103 102/102/102
f 374/392/374 375/393/375 208/211/208
f 371/389/371 376/394/376 377/395/377
f 366/383/366 365/382/365 378/396/378
f 220/225/220 46/46/46 45/45/45
f 377/395/377 376/394/376 374/392/374
f 138/139/138 58/58/58 374/392/374
f 366/383/366 378/396/378 379/397/379
f 379/397/379 378/396/378 105/105/105
f 374/392/374 373/391/373 377/395/377
f 371/389/371 377/395/377 373/391/373
f 3/3/3 2/2/2 219/224/219
f 217/222/217 380/398/380 381/399/381
f 378/396/378 81/81/81 105/105/105
f 365/382/365 81/81/81 378/396/378
f 382/400/382 216/221/216 279/288/279
f 383/401/383 384/402/384 215/220/215
f 385/403/385 1/1/1 3/3/3
f 386/404/386 387/405/387 364/381/364
f 382/400/382 388/406/388 216/221/216
f 142/143/142 76/76/76 75/75/75
f 211/216/211 90/407/90 166/167/166
f 90/407/90 211/216/211 389/408/389
f 386/404/386 390/409/390 387/405/387
f 79/79/79 267/276/267 80/80/80
f 71/71/71 70/70/70 216/221/216
f 216/221/216 391/410/391 71/71/71
f 133/134/133 392/411/392 302/314/302
f 325/337/325 392/411/392 326/338/326
f 351/365/351 391/410/391 393/412/393
f 351/365/351 393/412/393 74/74/74
f 4/4/4 333/413/333 332/414/332
f 190/193/190 4/4/4 188/191/188
f 279/288/279 394/415/394 384/402/384
f 318/330/318 395/416/395 319/331/319
f 213/218/213 396/417/396 113/113/113
f 229/234/229 108/108/108 113/113/113
f 146/147/146 145/146/145 397/418/397
f 397/418/397 169/170/169 146/147/146
f 85/85/85 194/197/194 356/372/356
f 207/210/207 206/209/206 85/85/85
f 324/336/324 183/186/183 182/185/182
f 329/341/329 146/147/146 398/419/398
f 112/112/112 119/119/119 399/420/399
f 82/82/82 375/393/375 83/83/83
f 376/394/376 375/393/375 374/392/374
f 119/119/119 232/237/232 231/236/231
f 352/366/352 233/238/233 348/362/348
f 60/60/60 86/86/86 61/61/61
f 243/248/243 400/421/400 244/249/244
f 388/406/388 382/400/382 383/401/383
f 401/422/401 260/269/260 402/423/402
f 305/317/305 25/25/25 403/424/403
f 301/313/301 300/312/300 404/425/404
f 201/204/201 200/203/200 39/39/39
f 39/39/39 168/169/168 201/204/201
f 405/426/405 158/159/158 278/287/278
f 406/427/406 158/159/158 405/426/405
f 407/428/407 408/429/408 117/117/117
f 93/93/93 344/358/344 346/430/346
f 346/430/346 408/429/408 407/428/407
f 338/351/338 346/360/346 128/352/128
f 340/354/340 342/356/342 61/61/61
f 88/88/88 106/106/106 212/217/212
f 299/431/299 409/432/409 297/433/297
f 409/432/409 410/434/410 370/388/370
f 254/259/254 255/261/255 145/146/145
f 144/145/144 254/259/254 145/146/145
f 125/125/125 124/124/124 99/99/99
f 125/125/125 132/133/132 134/135/134
f 411/435/411 258/266/258 257/265/257
f 239/267/239 412/436/412 413/437/413
f 414/438/414 415/439/415 18/18/18
f 18/18/18 415/439/415 152/153/152
f 412/436/412 416/440/416 417/441/417
f 418/442/418 413/437/413 412/436/412
f 328/340/328 419/443/419 178/181/178
f 136/137/136 135/136/135 82/82/82
f 420/444/420 73/73/73 307/319/307
f 242/247/242 353/367/353 162/163/162
f 418/442/418 412/436/412 417/441/417
f 418/442/418 411/435/411 257/265/257
f 251/256/251 361/377/361 94/131/94
f 94/94/94 40/40/40 92/92/92
f 418/442/418 417/441/417 77/77/77
f 78/78/78 77/77/77 421/445/421
f 335/347/335 422/446/422 423/447/423
f 334/346/334 420/444/420 307/319/307
f 139/140/139 121/121/121 140/141/140
f 121/121/121 424/448/424 140/141/140
f 193/196/193 425/449/425 421/445/421
f 191/194/191 193/196/193 417/441/417
f 272/281/272 134/135/134 271/280/271
f 22/22/22 271/280/271 23/23/23
f 417/441/417 421/445/421 77/77/77
f 417/441/417 193/196/193 421/445/421
f 426/450/426 198/201/198 427/451/427
f 198/201/198 197/200/197 427/451/427
f 304/316/304 295/306/295 269/278/269
f 269/278/269 321/333/321 270/279/270
f 217/222/217 428/452/428 403/424/403
f 305/317/305 403/424/403 429/453/429
f 329/341/329 398/419/398 324/336/324
f 329/341/329 324/336/324 330/342/330
f 88/88/88 212/217/212 430/454/430
f 88/88/88 61/61/61 86/86/86
f 403/424/403 428/452/428 429/453/429
f 33/33/33 32/32/32 203/206/203
f 290/301/290 431/455/431 212/217/212
f 431/455/431 430/454/430 212/217/212
f 19/19/19 21/21/21 10/10/10
f 291/302/291 289/300/289 172/173/172
f 138/139/138 236/241/236 234/239/234
f 138/139/138 374/392/374 236/241/236
f 342/356/342 432/456/432 433/457/433
f 432/456/432 434/458/434 433/457/433
f 289/300/289 291/302/291 182/185/182
f 182/185/182 291/302/291 263/272/263
f 57/57/57 156/157/156 371/389/371
f 371/389/371 406/427/406 84/84/84
f 342/356/342 433/457/433 184/187/184
f 184/187/184 435/459/435 436/460/436
f 419/443/419 324/336/324 331/343/331
f 419/443/419 331/343/331 178/181/178
f 68/68/68 23/23/23 69/69/69
f 69/69/69 23/23/23 318/330/318
f 62/62/62 437/461/437 282/291/282
f 436/460/436 342/356/342 184/187/184
f 402/423/402 260/269/260 259/268/259
f 259/268/259 362/378/362 402/423/402
f 193/196/193 438/462/438 425/449/425
f 57/57/57 157/158/157 156/157/156
f 437/461/437 63/63/63 282/291/282
f 437/461/437 17/17/17 187/190/187
f 142/143/142 143/144/143 439/463/439
f 175/178/175 143/212/143 357/373/357
f 336/348/336 108/108/108 228/233/228
f 336/348/336 123/123/123 108/108/108
f 244/249/244 20/298/20 49/49/49
f 49/49/49 20/298/20 50/50/50
f 436/460/436 435/459/435 414/438/414
f 414/438/414 306/318/306 415/439/415
f 327/339/327 36/464/36 205/208/205
f 36/36/36 241/246/241 301/465/301
f 50/50/50 288/299/288 181/184/181
f 50/50/50 181/184/181 183/186/183
f 62/62/62 436/460/436 437/461/437
f 437/461/437 436/460/436 414/438/414
f 398/419/398 146/147/146 169/170/169
f 169/170/169 50/50/50 183/186/183
f 211/216/211 106/106/106 87/87/87
f 211/216/211 210/215/210 213/218/213
f 393/412/393 391/410/391 440/466/440
f 388/406/388 383/401/383 401/422/401
f 310/322/310 410/434/410 441/467/441
f 323/335/323 316/328/316 191/194/191
f 265/274/265 138/139/138 235/240/235
f 442/468/442 443/469/443 81/81/81
f 444/470/444 323/335/323 191/194/191
f 444/470/444 191/194/191 417/441/417
f 150/471/150 41/41/41 167/262/167
f 41/41/41 154/155/154 153/154/153
f 248/264/248 258/266/258 249/472/249
f 445/473/445 138/139/138 266/275/266
f 299/431/299 241/246/241 409/432/409
f 300/312/300 241/311/241 299/310/299
f 37/37/37 345/359/345 55/55/55
f 55/55/55 54/54/54 314/326/314
f 89/89/89 91/91/91 446/474/446
f 278/287/278 277/286/277 155/156/155
f 13/13/13 424/448/424 261/270/261
f 13/13/13 447/475/447 362/378/362
f 3/3/3 448/476/448 385/403/385
f 3/3/3 219/224/219 448/476/448
f 449/477/449 426/450/426 446/474/446
f 449/477/449 198/201/198 426/450/426
f 31/478/31 30/30/30 32/479/32
f 15/15/15 447/475/447 13/13/13
f 298/309/298 238/243/238 240/245/240
f 26/26/26 245/250/245 27/27/27
f 446/474/446 91/91/91 144/145/144
f 449/477/449 446/474/446 155/156/155
f 28/28/28 30/30/30 43/480/43
f 209/214/209 28/213/28 43/43/43
f 450/481/450 390/409/390 386/404/386
f 451/482/451 452/483/452 385/403/385
f 274/283/274 179/182/179 331/343/331
f 324/336/324 274/283/274 331/343/331
f 197/200/197 317/329/317 309/321/309
f 315/327/315 197/200/197 199/202/199
f 386/404/386 452/483/452 450/481/450
f 453/484/453 368/385/368 390/409/390
f 208/211/208 375/393/375 135/136/135
f 375/393/375 82/82/82 135/136/135
f 74/74/74 76/76/76 177/370/177
f 72/72/72 74/74/74 177/370/177
f 454/485/454 245/250/245 247/252/247
f 453/484/453 455/486/455 247/252/247
f 140/141/140 215/220/215 141/142/141
f 362/378/362 215/220/215 140/141/140
f 243/248/243 48/48/48 397/418/397
f 170/171/170 48/48/48 50/50/50
f 426/450/426 427/451/427 276/285/276
f 285/295/285 276/285/276 427/451/427
f 456/487/456 73/73/73 353/367/353
f 73/73/73 354/368/354 353/367/353
f 283/292/283 457/488/457 21/21/21
f 458/489/458 12/12/12 11/11/11
f 149/150/149 459/490/459 155/156/155
f 405/426/405 459/490/459 149/150/149
f 274/283/274 275/284/275 179/182/179
f 179/182/179 275/284/275 195/198/195
f 4/4/4 6/6/6 35/35/35
f 35/35/35 409/432/409 241/246/241
f 91/91/91 87/260/87 254/259/254
f 389/408/389 211/216/211 87/87/87
f 387/405/387 367/384/367 79/79/79
f 364/381/364 387/405/387 365/382/365
f 100/100/100 225/230/225 227/232/227
f 100/100/100 124/124/124 225/230/225
f 244/491/244 460/492/460 461/493/461
f 20/20/20 244/491/244 283/292/283
f 296/307/296 133/134/133 302/314/302
f 269/278/269 296/307/296 302/314/302
f 32/32/32 205/494/205 204/207/204
f 205/495/205 36/36/36 301/465/301
f 255/496/255 87/87/87 86/86/86
f 400/497/400 460/492/460 244/491/244
f 367/384/367 267/276/267 79/79/79
f 367/384/367 248/253/248 250/255/250
f 23/23/23 270/279/270 318/330/318
f 320/332/320 395/416/395 318/330/318
f 462/498/462 203/206/203 204/207/204
f 462/498/462 428/452/428 203/206/203
f 463/499/463 464/500/464 465/501/465
f 46/46/46 360/376/360 359/375/359
f 455/486/455 454/485/454 247/252/247
f 245/250/245 454/485/454 27/27/27
f 428/452/428 462/498/462 429/453/429
f 462/498/462 301/313/301 404/425/404
f 466/502/466 467/503/467 103/103/103
f 464/500/464 463/499/463 466/502/466
f 67/504/67 355/369/355 468/505/468
f 355/369/355 354/368/354 468/505/468
f 452/483/452 27/27/27 454/485/454
f 452/483/452 451/482/451 27/27/27
f 349/363/349 352/366/352 343/357/343
f 343/357/343 352/366/352 344/358/344
f 469/506/469 63/63/63 65/65/65
f 12/12/12 458/489/458 65/65/65
f 160/161/160 102/102/102 104/104/104
f 176/179/176 102/102/102 9/9/9
f 222/227/222 22/22/22 98/98/98
f 470/507/470 272/281/272 471/508/471
f 457/488/457 458/489/458 11/11/11
f 458/489/458 469/506/469 65/65/65
f 252/257/252 281/290/281 256/263/256
f 256/263/256 472/509/472 361/377/361
f 439/463/439 177/370/177 76/76/76
f 142/143/142 439/463/439 76/76/76
f 457/488/457 469/506/469 458/489/458
f 469/506/469 457/488/457 283/292/283
f 253/258/253 200/203/200 201/204/201
f 253/258/253 256/263/256 200/203/200
f 247/252/247 246/251/246 368/385/368
f 453/484/453 247/252/247 368/385/368
f 279/288/279 384/402/384 382/400/382
f 384/402/384 383/401/383 382/400/382
f 127/510/127 339/353/339 128/352/128
f 55/55/55 339/353/339 96/349/96
f 246/251/246 248/253/248 368/385/368
f 248/253/248 246/251/246 413/511/413
f 430/454/430 340/354/340 61/61/61
f 88/88/88 430/454/430 61/61/61
f 97/97/97 96/96/96 473/512/473
f 97/97/97 474/513/474 119/119/119
f 433/457/433 185/188/185 184/187/184
f 434/458/434 185/188/185 433/457/433
f 206/209/206 194/197/194 85/85/85
f 206/209/206 180/183/180 194/197/194
f 116/116/116 118/118/118 126/126/126
f 97/97/97 473/512/473 474/513/474
f 59/59/59 78/78/78 57/57/57
f 157/158/157 57/57/57 425/449/425
f 219/224/219 218/223/218 217/222/217
f 219/224/219 217/222/217 381/399/381
f 283/292/283 60/60/60 469/506/469
f 460/492/460 60/60/60 461/493/461
f 414/438/414 17/17/17 437/461/437
f 17/17/17 414/438/414 18/18/18
f 168/169/168 264/273/264 202/205/202
f 356/372/356 264/273/264 168/169/168
f 158/159/158 315/327/315 199/202/199
f 158/159/158 199/202/199 278/287/278
f 225/230/225 228/233/228 226/231/226
f 228/233/228 229/234/229 226/231/226
f 475/514/475 366/383/366 463/499/463
f 364/381/364 366/383/366 475/514/475
f 53/53/53 52/52/52 416/440/416
f 416/440/416 444/470/444 417/441/417
f 225/230/225 124/124/124 336/348/336
f 123/123/123 336/348/336 124/124/124
f 330/342/330 324/336/324 419/443/419
f 328/340/328 330/342/330 419/443/419
f 310/322/310 444/470/444 410/434/410
f 444/470/444 416/440/416 52/52/52
f 129/515/129 94/94/94 93/93/93
f 129/515/129 93/93/93 346/430/346
f 18/18/18 151/152/151 174/175/174
f 280/380/280 174/175/174 151/152/151
f 66/66/66 8/8/8 7/7/7
f 66/66/66 223/228/223 110/110/110
f 144/145/144 146/147/146 147/148/147
f 146/147/146 148/149/148 147/148/147
f 437/461/437 187/190/187 63/63/63
f 187/190/187 16/16/16 63/63/63
f 472/516/472 167/262/167 40/40/40
f 280/380/280 167/168/167 472/517/472
f 396/417/396 229/234/229 113/113/113
f 165/166/165 226/231/226 229/234/229
f 461/493/461 60/60/60 283/292/283
f 244/491/244 461/493/461 283/292/283
f 448/476/448 451/482/451 385/403/385
f 27/27/27 451/482/451 25/25/25
f 24/24/24 23/23/23 68/68/68
f 423/447/423 420/444/420 335/347/335
f 476/518/476 104/104/104 103/103/103
f 476/518/476 103/103/103 467/503/467
f 137/138/137 312/324/312 477/519/477
f 312/324/312 137/138/137 136/137/136
f 435/459/435 184/187/184 186/189/186
f 435/459/435 186/189/186 414/438/414
f 357/373/357 293/304/293 358/374/358
f 357/373/357 358/374/358 102/102/102
f 412/436/412 239/267/239 53/53/53
f 416/440/416 412/436/412 53/53/53
f 186/189/186 306/318/306 414/438/414
f 186/189/186 307/319/307 306/318/306
f 26/26/26 298/309/298 240/245/240
f 26/26/26 299/310/299 298/309/298
f 82/82/82 478/520/478 136/137/136
f 82/82/82 148/149/148 478/520/478
f 14/14/14 479/521/479 205/208/205
f 262/271/262 14/14/14 13/13/13
f 451/482/451 480/522/480 25/25/25
f 380/398/380 25/25/25 480/522/480
f 188/191/188 4/4/4 332/414/332
f 164/165/164 284/294/284 481/523/481
f 172/177/172 10/10/10 12/12/12
f 289/300/289 10/524/10 172/173/172
f 1/1/1 364/381/364 475/514/475
f 364/381/364 1/1/1 386/404/386
f 155/156/155 446/474/446 144/145/144
f 147/148/147 155/156/155 144/145/144
f 217/222/217 403/424/403 380/398/380
f 403/424/403 25/25/25 380/398/380
f 478/520/478 178/181/178 136/137/136
f 180/183/180 136/137/136 178/181/178
f 380/398/380 480/522/480 381/399/381
f 219/224/219 381/399/381 480/522/480
f 272/281/272 22/22/22 482/525/482
f 22/22/22 272/281/272 271/280/271
f 122/122/122 303/315/303 120/120/120
f 479/521/479 120/120/120 303/315/303
f 175/178/175 439/526/439 143/212/143
f 439/526/439 175/178/175 177/180/177
f 482/525/482 22/22/22 222/227/222
f 471/508/471 222/227/222 109/109/109
f 295/306/295 141/142/141 322/334/322
f 320/332/320 322/334/322 395/416/395
f 90/90/90 389/527/389 91/91/91
f 389/527/389 87/260/87 91/91/91
f 322/334/322 141/142/141 395/416/395
f 214/219/214 395/416/395 141/142/141
f 441/467/441 410/434/410 409/432/409
f 35/35/35 441/467/441 409/432/409
f 233/238/233 153/154/153 232/237/232
f 348/362/348 233/238/233 232/237/232
f 139/140/139 295/306/295 304/316/304
f 483/528/483 304/316/304 303/315/303
f 258/266/258 445/473/445 266/275/266
f 258/266/258 411/435/411 59/59/59
f 42/42/42 92/92/92 40/40/40
f 92/92/92 349/363/349 93/93/93
f 120/120/120 261/270/261 121/121/121
f 261/270/261 424/448/424 121/121/121
f 390/409/390 368/385/368 367/384/367
f 387/405/387 390/409/390 367/384/367
f 298/309/298 369/386/369 238/243/238
f 369/387/369 52/52/52 51/51/51
f 120/120/120 479/521/479 262/271/262
f 262/271/262 479/521/479 14/14/14
f 62/62/62 342/356/342 436/460/436
f 61/61/61 342/356/342 62/62/62
f 383/401/383 260/269/260 401/422/401
f 260/269/260 383/401/383 215/220/215
f 345/359/345 338/351/338 55/55/55
f 338/351/338 345/359/345 346/360/346
f 227/232/227 226/231/226 484/529/484
f 101/101/101 327/339/327 326/338/326
f 75/75/75 440/466/440 142/143/142
f 29/29/29 142/143/142 401/422/401
f 305/317/305 404/425/404 300/312/300
f 26/26/26 305/317/305 300/312/300
f 392/411/392 303/315/303 302/314/302
f 303/315/303 392/411/392 479/521/479
f 216/221/216 388/406/388 391/410/391
f 440/466/440 391/410/391 388/406/388
f 288/299/288 289/300/289 181/184/181
f 288/299/288 10/524/10 289/300/289
f 447/475/447 15/15/15 32/479/32
f 32/479/32 15/15/15 205/208/205
f 306/318/306 308/320/308 415/439/415
f 415/439/415 308/320/308 485/530/485
f 411/435/411 418/442/418 77/77/77
f 411/435/411 77/77/77 59/59/59
f 189/192/189 285/295/285 427/451/427
f 427/451/427 197/200/197 189/192/189
f 422/446/422 335/347/335 185/188/185
f 434/458/434 422/446/422 185/188/185
f 64/64/64 280/380/280 173/176/173
f 202/205/202 173/174/173 280/289/280
f 301/313/301 204/207/204 205/494/205
f 301/313/301 462/498/462 204/207/204
f 98/98/98 24/24/24 422/446/422
f 434/458/434 98/98/98 422/446/422
f 195/198/195 356/372/356 194/197/194
f 195/198/195 264/273/264 356/372/356
f 280/289/280 472/509/472 281/290/281
f 281/290/281 472/509/472 256/263/256
f 218/223/218 44/44/44 33/33/33
f 44/44/44 218/223/218 294/305/294
f 319/331/319 395/416/395 394/415/394
f 395/416/395 214/219/214 394/415/394
f 438/462/438 315/327/315 157/158/157
f 425/449/425 438/462/438 157/158/157
f 95/95/95 337/531/337 96/96/96
f 337/531/337 95/95/95 486/532/486
f 384/402/384 214/219/214 215/220/215
f 394/415/394 214/219/214 384/402/384
f 60/60/60 282/291/282 469/506/469
f 469/506/469 282/291/282 63/63/63
f 119/119/119 348/362/348 232/237/232
f 474/513/474 348/362/348 119/119/119
f 432/456/432 341/355/341 434/458/434
f 341/355/341 432/456/432 342/356/342
f 161/162/161 163/164/163 485/530/485
f 161/162/161 485/530/485 308/320/308
f 352/366/352 348/362/348 347/361/347
f 118/118/118 487/533/487 347/361/347
f 252/257/252 202/205/202 281/290/281
f 201/204/201 202/205/202 252/257/252
f 347/361/347 487/533/487 352/366/352
f 352/366/352 487/533/487 344/358/344
f 235/240/235 486/534/486 265/274/265
f 442/468/442 488/535/488 443/469/443
f 226/231/226 165/166/165 164/165/164
f 164/165/164 481/523/481 226/231/226
f 408/429/408 344/358/344 117/117/117
f 346/430/346 344/358/344 408/429/408
f 268/277/268 249/254/249 265/536/265
f 80/80/80 267/276/267 268/277/268
f 99/99/99 132/133/132 125/125/125
f 99/99/99 133/134/133 132/133/132
f 424/448/424 13/13/13 362/378/362
f 362/378/362 140/141/140 424/448/424
f 265/536/265 488/535/488 442/468/442
f 268/277/268 265/536/265 80/80/80
f 315/327/315 317/329/317 197/200/197
f 438/462/438 317/329/317 315/327/315
f 21/21/21 457/488/457 11/11/11
f 10/10/10 21/21/21 11/11/11
f 401/422/401 402/423/402 29/29/29
f 402/423/402 362/378/362 29/29/29
f 98/98/98 489/537/489 107/107/107
f 290/301/290 114/114/114 489/537/489
f 219/224/219 2/2/2 220/225/220
f 220/225/220 2/2/2 464/500/464
f 71/71/71 391/410/391 351/365/351
f 71/71/71 351/365/351 72/72/72
f 12/12/12 64/64/64 172/177/172
f 65/65/65 64/64/64 12/12/12
f 7/7/7 160/161/160 159/160/159
f 150/471/150 154/155/154 41/41/41
f 370/388/370 410/434/410 52/52/52
f 444/470/444 52/52/52 410/434/410
f 145/146/145 243/248/243 397/418/397
f 243/248/243 145/146/145 400/421/400
f 399/420/399 224/229/224 159/160/159
f 485/530/485 163/164/163 490/538/490
f 489/537/489 114/114/114 107/107/107
f 114/114/114 108/108/108 107/107/107
f 420/444/420 68/68/68 73/73/73
f 420/444/420 423/447/423 68/68/68
f 490/538/490 163/164/163 111/539/111
f 111/111/111 67/67/67 66/66/66
f 313/325/313 54/54/54 311/323/311
f 236/241/236 237/242/237 234/239/234
f 164/165/164 491/540/491 115/293/115
f 491/540/491 90/407/90 115/293/115
f 355/369/355 67/504/67 163/164/163
f 163/164/163 67/504/67 111/539/111
f 313/325/313 38/38/38 314/326/314
f 38/38/38 207/210/207 85/85/85
f 295/306/295 322/334/322 321/333/321
f 295/306/295 321/333/321 269/278/269
f 162/163/162 353/367/353 355/369/355
f 163/164/163 162/163/162 355/369/355
f 55/55/55 314/326/314 37/37/37
f 37/37/37 314/326/314 38/38/38
f 470/507/470 108/108/108 123/123/123
f 470/507/470 221/226/221 272/281/272
f 101/101/101 227/232/227 484/529/484
f 100/100/100 227/232/227 101/101/101
f 477/519/477 312/324/312 311/323/311
f 237/242/237 311/323/311 492/541/492
f 379/397/379 463/499/463 366/383/366
f 379/397/379 476/518/476 467/503/467
f 327/339/327 484/529/484 36/464/36
f 101/101/101 484/529/484 327/339/327
f 237/242/237 477/519/477 311/323/311
f 237/242/237 137/138/137 477/519/477
f 7/7/7 9/9/9 160/161/160
f 102/102/102 160/161/160 9/9/9
f 493/542/493 494/543/494 234/239/234
f 237/242/237 492/541/492 234/239/234
f 452/483/452 386/404/386 385/403/385
f 386/404/386 1/1/1 385/403/385
f 111/111/111 110/110/110 153/154/153
f 231/236/231 230/235/230 110/110/110
f 493/542/493 234/239/234 492/541/492
f 493/542/493 54/54/54 494/543/494
f 379/397/379 105/105/105 476/518/476
f 105/105/105 112/112/112 476/518/476
f 405/426/405 84/84/84 406/427/406
f 405/426/405 149/150/149 84/84/84
f 54/54/54 493/542/493 492/541/492
f 492/541/492 311/323/311 54/54/54
f 352/366/352 349/363/349 42/42/42
f 349/363/349 92/92/92 42/42/42
f 158/159/158 406/427/406 156/157/156
f 156/157/156 406/427/406 371/389/371
f 5/5/5 189/192/189 196/199/196
f 5/5/5 196/199/196 310/322/310
f 8/8/8 287/297/287 9/9/9
f 286/296/286 287/297/287 8/8/8
f 392/411/392 133/134/133 326/338/326
f 133/134/133 99/99/99 131/132/131
f 189/192/189 5/5/5 190/193/190
f 190/193/190 5/5/5 4/4/4
f 472/516/472 40/40/40 361/544/361
f 361/544/361 40/40/40 94/94/94
f 326/338/326 131/132/131 101/101/101
f 326/338/326 133/134/133 131/132/131
f 294/305/294 47/47/47 292/303/292
f 143/212/143 209/214/209 292/303/292
f 170/171/170 169/170/169 397/418/397
f 397/418/397 48/48/48 170/171/170
f 460/492/460 86/86/86 60/60/60
f 86/86/86 460/492/460 255/496/255
f 209/214/209 294/305/294 292/303/292
f 44/44/44 294/305/294 209/214/209
f 413/437/413 418/442/418 257/265/257
f 413/437/413 257/265/257 248/264/248
f 429/453/429 404/425/404 305/317/305
f 404/425/404 429/453/429 462/498/462
f 320/332/320 270/279/270 321/333/321
f 270/279/270 320/332/320 318/330/318
f 128/128/128 346/430/346 407/428/407
f 126/126/126 128/128/128 407/428/407
f 405/426/405 278/287/278 459/490/459
f 459/490/459 278/287/278 155/156/155
f 480/522/480 448/476/448 219/224/219
f 451/482/451 448/476/448 480/522/480
f 152/153/152 415/439/415 485/530/485
f 152/153/152 485/530/485 490/538/490
f 186/189/186 335/347/335 334/346/334
f 335/347/335 420/444/420 334/346/334
f 486/534/486 235/240/235 337/350/337
f 234/239/234 494/543/494 235/240/235
f 273/282/273 275/284/275 182/185/182
f 195/198/195 275/284/275 273/282/273
f 438/462/438 193/196/193 192/195/192
f 192/195/192 317/329/317 438/462/438
f 495/545/495 358/374/358 293/304/293
f 47/47/47 293/304/293 292/303/292
f 296/307/296 134/135/134 133/134/133
f 296/307/296 271/280/271 134/135/134
f 423/447/423 24/24/24 68/68/68
f 422/446/422 24/24/24 423/447/423
f 471/508/471 109/109/109 470/507/470
f 108/108/108 470/507/470 109/109/109
f 75/75/75 393/412/393 440/466/440
f 393/412/393 75/75/75 74/74/74
f 491/540/491 164/165/164 166/167/166
f 491/540/491 166/167/166 90/407/90
f 463/499/463 467/503/467 466/502/466
f 379/397/379 467/503/467 463/499/463
f 30/30/30 362/378/362 447/475/447
f 30/30/30 447/475/447 32/479/32
f 475/514/475 463/499/463 465/501/465
f 465/501/465 464/500/464 2/2/2
f 33/33/33 43/43/43 31/31/31
f 43/480/43 30/30/30 31/478/31
f 2/2/2 1/1/1 496/546/496
f 2/2/2 496/546/496 465/501/465
f 319/331/319 279/288/279 69/69/69
f 394/415/394 279/288/279 319/331/319
f 250/255/250 249/254/249 267/276/267
f 367/384/367 250/255/250 267/276/267
f 307/319/307 242/247/242 308/320/308
f 307/319/307 73/73/73 456/487/456
f 255/496/255 460/492/460 400/497/400
f 145/146/145 255/261/255 400/421/400
f 456/487/456 353/367/353 242/247/242
f 307/319/307 456/487/456 242/247/242
f 221/226/221 123/123/123 125/125/125
f 123/123/123 221/226/221 470/507/470
f 239/244/239 246/251/246 245/250/245
f 246/251/246 239/244/239 413/511/413
f 311/323/311 207/210/207 313/325/313
f 38/38/38 313/325/313 207/210/207
f 240/245/240 239/244/239 245/250/245
f 26/26/26 240/245/240 245/250/245
f 16/16/16 18/18/18 64/64/64
f 63/63/63 16/16/16 64/64/64
f 258/266/258 59/59/59 445/473/445
f 59/59/59 138/139/138 445/473/445
f 482/525/482 222/227/222 471/508/471
f 471/508/471 272/281/272 482/525/482
f 409/432/409 370/388/370 297/433/297
f 297/433/297 370/388/370 369/387/369
f 117/117/117 344/358/344 487/533/487
f 487/533/487 118/118/118 117/117/117
f 79/79/79 365/382/365 387/405/387
f 81/81/81 365/382/365 79/79/79
f 213/218/213 210/215/210 396/417/396
f 396/417/396 165/166/165 229/234/229
f 324/336/324 398/419/398 183/186/183
f 183/186/183 398/419/398 169/170/169
f 165/166/165 210/215/210 166/167/166
f 165/166/165 396/417/396 210/215/210
f 81/81/81 443/469/443 95/95/95
f 443/469/443 488/535/488 95/95/95
f 426/450/426 89/89/89 446/474/446
f 426/450/426 276/285/276 89/89/89
f 496/546/496 475/514/475 465/501/465
f 496/546/496 1/1/1 475/514/475
f 284/294/284 332/344/332 481/523/481
f 226/231/226 481/523/481 332/344/332
f 98/98/98 434/458/434 489/537/489
f 434/458/434 341/355/341 489/537/489
f 46/46/46 359/375/359 47/47/47
f 495/545/495 359/375/359 358/374/358
f 290/301/290 341/355/341 431/455/431
f 290/301/290 489/537/489 341/355/341
f 293/304/293 47/47/47 495/545/495
f 47/47/47 359/375/359 495/545/495
f 57/57/57 373/391/373 58/58/58
f 58/58/58 373/391/373 374/392/374
f 218/223/218 497/547/497 294/305/294
f 218/223/218 219/224/219 497/547/497
f 312/324/312 180/183/180 207/210/207
f 312/324/312 136/137/136 180/183/180
f 497/547/497 45/45/45 294/305/294
f 219/224/219 45/45/45 497/547/497
f 483/528/483 139/140/139 304/316/304
f 483/528/483 303/315/303 122/122/122
f 483/528/483 122/122/122 139/140/139
f 122/122/122 121/121/121 139/140/139
f 478/520/478 328/340/328 178/181/178
f 478/520/478 148/149/148 328/340/328
f 329/341/329 148/149/148 146/147/146
f 328/340/328 148/149/148 329/341/329
f 468/505/468 354/368/354 286/548/286
f 468/505/468 286/548/286 67/504/67
f 110/110/110 230/235/230 153/154/153
f 230/235/230 232/237/232 153/154/153
f 104/104/104 476/518/476 112/112/112
f 223/228/223 66/66/66 7/7/7
f 72/72/72 354/368/354 73/73/73
f 354/368/354 72/72/72 286/548/286
f 449/477/449 155/156/155 277/286/277
f 198/201/198 449/477/449 277/286/277
f 72/72/72 350/371/350 286/548/286
f 286/296/286 350/364/350 287/297/287
f 431/455/431 341/355/341 340/354/340
f 431/455/431 340/354/340 430/454/430
f 231/236/231 110/110/110 224/229/224
f 224/229/224 223/228/223 159/160/159
f 70/70/70 73/73/73 68/68/68
f 73/73/73 70/70/70 71/71/71
f 239/244/239 238/243/238 51/549/51
f 369/386/369 51/549/51 238/243/238
f 231/236/231 399/420/399 119/119/119
f 231/236/231 224/229/224 399/420/399
f 372/390/372 376/394/376 371/389/371
f 83/83/83 372/390/372 84/84/84
f 127/127/127 126/126/126 473/512/473
f 473/512/473 126/126/126 118/118/118
f 36/36/36 333/413/333 34/34/34
f 333/413/333 4/4/4 34/34/34
f 376/394/376 372/390/372 83/83/83
f 83/83/83 375/393/375 376/394/376
f 96/349/96 339/353/339 127/510/127
f 96/96/96 127/127/127 473/512/473
f 309/321/309 317/329/317 316/328/316
f 196/199/196 309/321/309 316/328/316
f 205/208/205 479/521/479 325/337/325
f 325/337/325 479/521/479 392/411/392
f 488/535/488 486/532/486 95/95/95
f 486/532/486 488/535/488 265/536/265
f 19/550/19 10/524/10 288/299/288
f 288/299/288 20/298/20 19/550/19
f 56/56/56 494/543/494 54/54/54
f 337/350/337 56/56/56 55/55/55
f 196/199/196 323/335/323 310/322/310
f 323/335/323 444/470/444 310/322/310
f 117/117/117 116/116/116 407/428/407
f 407/428/407 116/116/116 126/126/126
f 6/6/6 310/322/310 441/467/441
f 6/6/6 441/467/441 35/35/35
f 337/350/337 494/543/494 56/56/56
f 337/350/337 235/240/235 494/543/494
f 474/513/474 118/118/118 348/362/348
f 473/512/473 118/118/118 474/513/474
f 360/376/360 466/502/466 103/103/103
f 46/46/46 466/502/466 360/376/360
f 345/359/345 363/379/363 130/130/130
f 130/130/130 129/129/129 345/359/345
f 452/483/452 455/486/455 450/481/450
f 455/486/455 452/483/452 454/485/454
f 464/500/464 466/502/466 46/46/46
f 220/225/220 464/500/464 46/46/46
f 200/203/200 363/379/363 37/37/37
f 130/130/130 363/379/363 200/203/200
f 453/484/453 390/409/390 450/481/450
f 453/484/453 450/481/450 455/486/455
f 106/106/106 211/216/211 213/218/213
f 212/217/212 106/106/106 213/218/213
f 265/536/265 442/468/442 80/80/80
f 80/80/80 442/468/442 81/81/81
f 78/78/78 421/445/421 57/57/57
f 421/445/421 425/449/425 57/57/57
f 171/172/171 263/272/263 291/302/291
f 171/172/171 173/174/173 263/272/263
f 249/472/249 266/275/266 265/274/265
f 249/472/249 258/266/258 266/275/266
f 189/192/189 188/191/188 285/295/285
f 285/295/285 284/551/284 115/115/115
f 176/179/176 357/373/357 102/102/102
f 175/178/175 357/373/357 176/179/176
f 284/551/284 188/191/188 332/414/332
f 188/191/188 284/551/284 285/295/285
f 388/406/388 401/422/401 440/466/440
f 142/143/142 440/466/440 401/422/401
f 236/241/236 374/392/374 208/211/208
f 208/211/208 137/138/137 236/241/236
f 33/33/33 203/206/203 428/452/428
f 217/222/217 33/33/33 428/452/428
f 490/538/490 111/539/111 154/552/154
f 490/538/490 154/552/154 150/151/150
f 152/153/152 490/538/490 150/151/150
f 104/104/104 112/112/112 159/160/159
f 223/228/223 7/7/7 159/160/159
f 399/420/399 159/160/159 112/112/112
f 36/464/36 484/529/484 333/345/333
f 484/529/484 226/231/226 333/345/333
